{
 "actions": [],
 "autoname": "ORDONNANCE-.####",
 "creation": "2017-04-13 11:58:13.839009",
 "doctype": "DocType",
 "document_type": "Document",
 "editable_grid": 1,
 "engine": "InnoDB",
 "field_order": [
  "section_break_2",
  "patient_record",
  "patient_name",
  "column_break_2",
  "practitioner",
  "consultation_date",
  "section_break_jhnb",
  "prescription_type",
  "prescription_builder",
  "section_break_pohz",
  "reference_doctype",
  "column_break_gmzb",
  "reference_name",
  "drug_prescription",
  "drug_list_template",
  "drug_prescription_table",
  "lab_prescription",
  "lab_exam_template",
  "lab_prescription_table",
  "echography_prescription",
  "echography_prescription_table",
  "amended_from",
  "print_settings",
  "letter_head"
 ],
 "fields": [
  {
   "depends_on": "eval:doc.patient_record != doc.patient_name",
   "fetch_from": "patient_record.patient_name",
   "fieldname": "patient_name",
   "fieldtype": "Data",
   "in_list_view": 1,
   "label": "Patient Name",
   "read_only": 1
  },
  {
   "fieldname": "section_break_2",
   "fieldtype": "Section Break"
  },
  {
   "fieldname": "patient_record",
   "fieldtype": "Link",
   "in_standard_filter": 1,
   "label": "Patient Record",
   "options": "Patient Record",
   "reqd": 1
  },
  {
   "fieldname": "column_break_2",
   "fieldtype": "Column Break"
  },
  {
   "default": "User",
   "fieldname": "practitioner",
   "fieldtype": "Link",
   "in_filter": 1,
   "in_standard_filter": 1,
   "label": "Practitioner",
   "options": "Professional Information Card",
   "print_hide": 1,
   "remember_last_selected_value": 1,
   "reqd": 1,
   "search_index": 1
  },
  {
   "default": "Today",
   "fieldname": "consultation_date",
   "fieldtype": "Date",
   "in_list_view": 1,
   "label": "Date",
   "reqd": 1
  },
  {
   "depends_on": "eval:doc.prescription_type==\"Drug Prescription\"",
   "fieldname": "drug_prescription",
   "fieldtype": "Section Break",
   "label": "Drug Prescription"
  },
  {
   "fieldname": "drug_list_template",
   "fieldtype": "Link",
   "label": "Drug List",
   "options": "Drug List Template"
  },
  {
   "fieldname": "drug_prescription_table",
   "fieldtype": "Table",
   "label": "Drug Prescription",
   "options": "Drug Prescription"
  },
  {
   "depends_on": "eval:doc.prescription_type==\"Lab Prescription\"",
   "fieldname": "lab_prescription",
   "fieldtype": "Section Break",
   "label": "Lab Prescription"
  },
  {
   "fieldname": "lab_exam_template",
   "fieldtype": "Link",
   "label": "Lab Exam Template",
   "options": "Lab Exam Template"
  },
  {
   "fieldname": "lab_prescription_table",
   "fieldtype": "Table",
   "label": "Lab Prescription",
   "options": "Lab Exam Prescription"
  },
  {
   "depends_on": "eval:doc.prescription_type==\"Echography Prescription\"",
   "fieldname": "echography_prescription",
   "fieldtype": "Section Break",
   "label": "Echography Prescription"
  },
  {
   "fieldname": "echography_prescription_table",
   "fieldtype": "Table",
   "label": "Echography Prescription",
   "options": "Echography Prescription"
  },
  {
   "fieldname": "amended_from",
   "fieldtype": "Link",
   "label": "Amended From",
   "no_copy": 1,
   "options": "Prescription",
   "print_hide": 1,
   "read_only": 1
  },
  {
   "collapsible": 1,
   "fieldname": "print_settings",
   "fieldtype": "Section Break",
   "label": "Print Settings"
  },
  {
   "fieldname": "letter_head",
   "fieldtype": "Link",
   "label": "Letter Head",
   "options": "Letter Head"
  },
  {
   "fieldname": "section_break_jhnb",
   "fieldtype": "Section Break"
  },
  {
   "fieldname": "prescription_type",
   "fieldtype": "Select",
   "label": "Prescription Type",
   "options": "Drug Prescription\nLab Prescription\nEchography Prescription",
   "reqd": 1
  },
  {
   "collapsible": 1,
   "collapsible_depends_on": "reference_name",
   "fieldname": "section_break_pohz",
   "fieldtype": "Section Break",
   "label": "Reference Document"
  },
  {
   "fieldname": "reference_doctype",
   "fieldtype": "Link",
   "label": "Reference DocType",
   "options": "DocType"
  },
  {
   "fieldname": "column_break_gmzb",
   "fieldtype": "Column Break"
  },
  {
   "fieldname": "reference_name",
   "fieldtype": "Dynamic Link",
   "label": "Reference Name",
   "options": "reference_doctype"
  },
  {
   "fieldname": "prescription_builder",
   "fieldtype": "HTML",
   "label": "prescription_builder"
  }
 ],
 "icon": "prescription",
 "is_submittable": 1,
 "links": [],
 "modified": "2023-10-12 22:01:31.790379",
 "modified_by": "Administrator",
 "module": "Patients",
 "name": "Prescription",
 "naming_rule": "Expression (old style)",
 "owner": "Administrator",
 "permissions": [
  {
   "amend": 1,
   "cancel": 1,
   "create": 1,
   "delete": 1,
   "email": 1,
   "export": 1,
   "print": 1,
   "read": 1,
   "report": 1,
   "role": "System Manager",
   "select": 1,
   "share": 1,
   "submit": 1,
   "write": 1
  },
  {
   "amend": 1,
   "cancel": 1,
   "create": 1,
   "delete": 1,
   "email": 1,
   "export": 1,
   "print": 1,
   "read": 1,
   "report": 1,
   "role": "Midwife",
   "select": 1,
   "share": 1,
   "submit": 1,
   "write": 1
  },
  {
   "amend": 1,
   "cancel": 1,
   "create": 1,
   "delete": 1,
   "email": 1,
   "export": 1,
   "print": 1,
   "read": 1,
   "report": 1,
   "role": "Midwife Substitute",
   "select": 1,
   "share": 1,
   "submit": 1,
   "write": 1
  },
  {
   "amend": 1,
   "cancel": 1,
   "create": 1,
   "delete": 1,
   "email": 1,
   "export": 1,
   "print": 1,
   "read": 1,
   "report": 1,
   "role": "Physician",
   "select": 1,
   "share": 1,
   "submit": 1,
   "write": 1
  }
 ],
 "sort_field": "modified",
 "sort_order": "DESC",
 "states": [],
 "title_field": "patient_name",
 "track_changes": 1
}
