{
 "custom_fields": [],
 "custom_perms": [
  {
   "_assign": null,
   "_comments": null,
   "_liked_by": null,
   "_user_tags": null,
   "amend": 0,
   "cancel": 0,
   "create": 0,
   "creation": "2013-01-29 10:47:14",
   "delete": 1,
   "docstatus": 0,
   "email": 1,
   "export": 0,
   "idx": 4,
   "if_owner": 1,
   "import": 0,
   "modified": "2023-11-02 13:41:31.774053",
   "modified_by": "Administrator",
   "name": "788c609a8d",
   "owner": "Administrator",
   "parent": "Communication",
   "parentfield": "permissions",
   "parenttype": "DocType",
   "permlevel": 0,
   "print": 0,
   "read": 1,
   "report": 0,
   "role": "All",
   "set_user_permissions": 0,
   "share": 0,
   "submit": 0,
   "user_permission_doctypes": null,
   "write": 0
  },
  {
   "_assign": null,
   "_comments": null,
   "_liked_by": null,
   "_user_tags": null,
   "amend": 0,
   "cancel": 0,
   "create": 0,
   "creation": "2013-01-29 10:47:14",
   "delete": 1,
   "docstatus": 0,
   "email": 1,
   "export": 1,
   "idx": 2,
   "if_owner": 0,
   "import": 0,
   "modified": "2023-11-02 13:41:31.806757",
   "modified_by": "Administrator",
   "name": "8505f17cd2",
   "owner": "Administrator",
   "parent": "Communication",
   "parentfield": "permissions",
   "parenttype": "DocType",
   "permlevel": 1,
   "print": 1,
   "read": 1,
   "report": 1,
   "role": "System Manager",
   "set_user_permissions": 0,
   "share": 1,
   "submit": 0,
   "user_permission_doctypes": null,
   "write": 0
  },
  {
   "_assign": null,
   "_comments": null,
   "_liked_by": null,
   "_user_tags": null,
   "amend": 0,
   "cancel": 0,
   "create": 1,
   "creation": "2013-01-29 10:47:14",
   "delete": 1,
   "docstatus": 0,
   "email": 1,
   "export": 0,
   "idx": 1,
   "if_owner": 0,
   "import": 0,
   "modified": "2023-11-02 13:41:31.820180",
   "modified_by": "Administrator",
   "name": "8b8519a199",
   "owner": "Administrator",
   "parent": "Communication",
   "parentfield": "permissions",
   "parenttype": "DocType",
   "permlevel": 0,
   "print": 0,
   "read": 1,
   "report": 1,
   "role": "System Manager",
   "set_user_permissions": 0,
   "share": 1,
   "submit": 0,
   "user_permission_doctypes": null,
   "write": 0
  },
  {
   "_assign": null,
   "_comments": null,
   "_liked_by": null,
   "_user_tags": null,
   "amend": 0,
   "cancel": 0,
   "create": 0,
   "creation": "2013-01-29 10:47:14",
   "delete": 1,
   "docstatus": 0,
   "email": 1,
   "export": 1,
   "idx": 3,
   "if_owner": 0,
   "import": 0,
   "modified": "2023-11-02 13:41:31.834202",
   "modified_by": "Administrator",
   "name": "ef2837d2aa",
   "owner": "Administrator",
   "parent": "Communication",
   "parentfield": "permissions",
   "parenttype": "DocType",
   "permlevel": 2,
   "print": 1,
   "read": 1,
   "report": 1,
   "role": "System Manager",
   "set_user_permissions": 0,
   "share": 1,
   "submit": 0,
   "user_permission_doctypes": null,
   "write": 1
  },
  {
   "_assign": null,
   "_comments": null,
   "_liked_by": null,
   "_user_tags": null,
   "amend": 0,
   "cancel": 0,
   "create": 0,
   "creation": "2019-11-02 13:41:31.849050",
   "delete": 1,
   "docstatus": 0,
   "email": 0,
   "export": 1,
   "idx": 0,
   "if_owner": 0,
   "import": 0,
   "modified": "2023-11-02 13:41:31.849050",
   "modified_by": "Administrator",
   "name": "12f73282e9",
   "owner": "Administrator",
   "parent": "Communication",
   "parentfield": "permissions",
   "parenttype": "DocType",
   "permlevel": 0,
   "print": 0,
   "read": 1,
   "report": 1,
   "role": "Midwife",
   "set_user_permissions": 0,
   "share": 1,
   "submit": 0,
   "user_permission_doctypes": null,
   "write": 0
  },
  {
   "_assign": null,
   "_comments": null,
   "_liked_by": null,
   "_user_tags": null,
   "amend": 0,
   "cancel": 0,
   "create": 0,
   "creation": "2019-11-02 13:41:55.527556",
   "delete": 1,
   "docstatus": 0,
   "email": 0,
   "export": 1,
   "idx": 0,
   "if_owner": 0,
   "import": 0,
   "modified": "2023-11-02 13:41:55.527556",
   "modified_by": "Administrator",
   "name": "13ccd05192",
   "owner": "Administrator",
   "parent": "Communication",
   "parentfield": "permissions",
   "parenttype": "DocType",
   "permlevel": 0,
   "print": 0,
   "read": 1,
   "report": 1,
   "role": "Midwife Substitute",
   "set_user_permissions": 0,
   "share": 1,
   "submit": 0,
   "user_permission_doctypes": null,
   "write": 0
  }
 ],
 "doctype": "Communication",
 "property_setters": [],
 "sync_on_migrate": 1
}
