{
 "actions": [],
 "allow_import": 1,
 "autoname": "naming_series:",
 "creation": "2017-03-15 21:51:48.532023",
 "doctype": "DocType",
 "document_type": "Document",
 "editable_grid": 1,
 "engine": "InnoDB",
 "field_order": [
  "naming_series",
  "patient_record",
  "column_break_3",
  "patient_name",
  "date",
  "section_break_2",
  "living_conditions",
  "column_break_9",
  "work",
  "section_break_10",
  "father",
  "column_break_14",
  "violences",
  "sexuality",
  "section_break_13",
  "family",
  "column_break_15",
  "family_in_law",
  "section_break_16",
  "personal_background",
  "gynecological_background",
  "obstetrical_background",
  "section_break_20",
  "pregnancy",
  "column_break_22",
  "delivery",
  "print_settings",
  "letter_head"
 ],
 "fields": [
  {
   "default": "EPNP-",
   "fieldname": "naming_series",
   "fieldtype": "Select",
   "hidden": 1,
   "label": "Series",
   "options": "EPNP-"
  },
  {
   "fieldname": "patient_record",
   "fieldtype": "Link",
   "in_list_view": 1,
   "in_standard_filter": 1,
   "label": "Patient Record",
   "options": "Patient Record",
   "print_hide": 1,
   "reqd": 1,
   "search_index": 1,
   "set_only_once": 1
  },
  {
   "fieldname": "column_break_3",
   "fieldtype": "Column Break"
  },
  {
   "bold": 1,
   "fetch_from": "patient_record.patient_name",
   "fieldname": "patient_name",
   "fieldtype": "Data",
   "in_list_view": 1,
   "label": "Patient Name",
   "read_only": 1
  },
  {
   "fieldname": "date",
   "fieldtype": "Date",
   "label": "Date"
  },
  {
   "fieldname": "section_break_2",
   "fieldtype": "Section Break"
  },
  {
   "description": "Accomodation, Resources, Social Security ?",
   "fieldname": "living_conditions",
   "fieldtype": "Small Text",
   "label": "Living Conditions"
  },
  {
   "fieldname": "column_break_9",
   "fieldtype": "Column Break"
  },
  {
   "description": "Job, Commuting, Work Conditions, Employer & Pregnancy, Well Being at Work, ... ",
   "fieldname": "work",
   "fieldtype": "Small Text",
   "label": "Work"
  },
  {
   "fieldname": "section_break_10",
   "fieldtype": "Section Break"
  },
  {
   "description": "Relationship, Dedication to the Pregnancy, ...",
   "fieldname": "father",
   "fieldtype": "Text",
   "label": "Father"
  },
  {
   "fieldname": "column_break_14",
   "fieldtype": "Column Break"
  },
  {
   "fieldname": "violences",
   "fieldtype": "Small Text",
   "label": "Violences"
  },
  {
   "fieldname": "sexuality",
   "fieldtype": "Small Text",
   "label": "Sexuality"
  },
  {
   "fieldname": "section_break_13",
   "fieldtype": "Section Break"
  },
  {
   "description": "Relationship with the Family, Living Place, Autonomy, Relationship with Siblings",
   "fieldname": "family",
   "fieldtype": "Small Text",
   "label": "Family"
  },
  {
   "fieldname": "column_break_15",
   "fieldtype": "Column Break"
  },
  {
   "description": "Relationship with the Family in Law, Living Place, Autonomy, Relationship with Siblings in Law",
   "fieldname": "family_in_law",
   "fieldtype": "Small Text",
   "label": "Family in Law"
  },
  {
   "fieldname": "section_break_16",
   "fieldtype": "Section Break"
  },
  {
   "description": "Stress, Anxiety, Sleeping Troubles, Psychological Support, Depressive Antecedent, Landmark Event in Childhood, Treatment, Disease, ...",
   "fieldname": "personal_background",
   "fieldtype": "Small Text",
   "label": "Personal Background"
  },
  {
   "description": "ART ? Experience",
   "fieldname": "gynecological_background",
   "fieldtype": "Small Text",
   "label": "Gynecological Background"
  },
  {
   "description": "Previous Pregnancies Experience ?",
   "fieldname": "obstetrical_background",
   "fieldtype": "Small Text",
   "label": "Obstetrical Background"
  },
  {
   "fieldname": "section_break_20",
   "fieldtype": "Section Break"
  },
  {
   "description": "Pregnancy Experience, Anxiety, Potential Difficulties, Stressful Change to Come ?",
   "fieldname": "pregnancy",
   "fieldtype": "Small Text",
   "label": "Pregnancy"
  },
  {
   "fieldname": "column_break_22",
   "fieldtype": "Column Break"
  },
  {
   "description": "Picture ? Birth Project ? Epidural ? Breastfeeding ? Anxiety ? Picture of the C-section ? Pregnancy and Couple ?",
   "fieldname": "delivery",
   "fieldtype": "Small Text",
   "label": "Delivery"
  },
  {
   "collapsible": 1,
   "fieldname": "print_settings",
   "fieldtype": "Section Break",
   "label": "Print Settings"
  },
  {
   "fieldname": "letter_head",
   "fieldtype": "Link",
   "label": "Letter Head",
   "options": "Letter Head"
  }
 ],
 "icon": "sonography",
 "links": [],
 "modified": "2023-09-26 22:05:50.885465",
 "modified_by": "Administrator",
 "module": "Patients",
 "name": "Prenatal Interview",
 "naming_rule": "By \"Naming Series\" field",
 "owner": "Administrator",
 "permissions": [
  {
   "create": 1,
   "delete": 1,
   "email": 1,
   "export": 1,
   "print": 1,
   "read": 1,
   "report": 1,
   "role": "System Manager",
   "share": 1,
   "write": 1
  },
  {
   "create": 1,
   "delete": 1,
   "email": 1,
   "export": 1,
   "import": 1,
   "print": 1,
   "read": 1,
   "report": 1,
   "role": "Midwife",
   "share": 1,
   "write": 1
  },
  {
   "create": 1,
   "delete": 1,
   "email": 1,
   "export": 1,
   "print": 1,
   "read": 1,
   "report": 1,
   "role": "Midwife Substitute",
   "share": 1,
   "write": 1
  }
 ],
 "quick_entry": 1,
 "route": "desk#Form/DocType/Prenatal Interview",
 "show_name_in_global_search": 1,
 "sort_field": "modified",
 "sort_order": "DESC",
 "states": [],
 "timeline_field": "patient_record",
 "title_field": "patient_name",
 "track_changes": 1
}