{
 "aggregate_function_based_on": "",
 "color": "#FF897D",
 "creation": "2023-06-06 20:55:02.011115",
 "docstatus": 0,
 "doctype": "Number Card",
 "document_type": "Patient Record",
 "dynamic_filters_json": "[]",
 "filters_json": "[]",
 "function": "Count",
 "idx": 0,
 "is_public": 1,
 "is_standard": 1,
 "label": "Patient Records",
 "modified": "2023-08-06 20:55:02.011115",
 "modified_by": "Administrator",
 "module": "Patients",
 "name": "Patient Records",
 "owner": "Administrator",
 "parent_document_type": "",
 "report_function": "Sum",
 "show_percentage_stats": 1,
 "stats_time_interval": "Yearly",
 "type": "Document Type"
}
