{
 "align_labels_right": 0,
 "creation": "2018-04-10 21:09:44.081541",
 "css": "h1, h2, h3, h4, h5, h6, p {\n\tcolor: #434d56 !important;\n}\n\nlabel, div {\n\tcolor: #4f5a64 !important;\n}\n\n.print-heading {\n\tmargin-top: 0.4in !important;\n\ttext-align: left;\n\ttext-transform: uppercase;\n\tpadding-bottom: 20px;\n\tmargin-bottom: 20px;\n\tborder-bottom: 1px solid #d1d8dd;\n}\n\n.print-format {\n\tborder-radius: 5px;\n\tmargin: auto;\n\tposition: relative;\n}\n\n.print-format th {\n\tbackground-color: #fff !important;\n}\n\n.header-html {\n\tpadding: 0.4in;\n\tbackground: #f5fafc !important;\n\tborder-radius: 5px 5px 0 0;\n\twidth: 100%;\n}\n\n.body-html {\n\tpadding: 0 0.8in 0.8in 0.8in;\n}\n\n.table {\n\tmargin-top: 50px !important;\n\tmargin-bottom: 20px !important;\n}\n\n.table > tbody + tbody {\n\tborder-top: 1px solid #d1d8dd;\n}\n\n.table > tbody > tr > th {\n\tborder-top: 2px solid #d1d8dd !important;\n\tborder-bottom: 2px solid #d1d8dd !important;\n}\n\n.table > tbody > tr > td {\n\tborder-bottom: 1px solid #d1d8dd;\n}\n\n.pg-brk {\n page-break-before: always !important;\n}\n\n.terms {\n\tmargin-top: 25px;\n}\n\n@media print {\n\th1, h2, h3, h4, h5, h6, p, th, td, strong, a, b, ul, li {\n\t\tcolor: #434d56 !important;\n\t}\n\t.print-format {\n\t    padding: 0 25px;\n\t}\n\t.print-heading {\n\t\tmargin-top: 0.4in !important;\n\t\tcolor: #657381 !important;\n\t\tborder-bottom: 2px solid #1a4f7f;\n\t}\n\t.header-html {\n\t\tbackground: #f5fafc !important;\n\t}\n\t.body-html {\n\t\tpadding: 0 0.4in 0.4in 0.4in !important;\n\t}\n\t.letter-head-footer {\n\t\tpadding-top: 20px;\n\t\tborder-top: 2px solid #1a4f7f;\n\t}\n\t.main {\n\t\tpadding-right: 15px !important;\n\t\tpadding-left: 15px !important;\n\t}\n\ta[href]:after {\n\t\tcontent: none;\n\t}\n}\n",
 "custom_format": 1,
 "disabled": 0,
 "doc_type": "Revenue",
 "docstatus": 0,
 "doctype": "Print Format",
 "font": "Default",
 "html": "{% if letter_head and not no_letterhead %}\n<div class=\"letter-head\">{{ letter_head }}</div>\n{% endif %}\n\n{% if doc.print_heading_template %} {{ frappe.render_template(doc.print_heading_template, {\"doc\":doc}) }} {% else %}\n<div class=\"print-heading\">\n\t<h2>{{ _(\"Receipt\") }}</h2>\n</div>\n{% endif %} {%- if doc.meta.is_submittable and doc.docstatus==0 and (print_settings==None or print_settings.add_draft_heading) -%}\n<div class=\"text-center\" document-status=\"draft\">\n\t<h4 style=\"margin: 0px;\">{{ _(\"DRAFT\") }}</h4>\n</div>\n{%- endif -%} {%- if doc.meta.is_submittable and doc.docstatus==2-%}\n<div class=\"text-center\" document-status=\"cancelled\">\n\t<h4 style=\"margin: 0px;\">{{ _(\"CANCELLED\") }}</h4>\n</div>\n{%- endif -%}\n<div class=\"main\">\n\t<div id=\"footer-html\" class=\"visible-pdf\">\n\t\t{% if not no_letterhead and footer %}\n\t\t<div class=\"letter-head-footer visible-pdf text-center\">\n\t\t\t{{ footer }}\n\t\t</div>\n\t\t{% endif %}\n\t\t<p class=\"text-center small page-number visible-pdf\">\n\t\t\t{{ _(\"Page {0} of {1}\").format('<span class=\"page\"></span>', '<span class=\"topage\"></span>') }}\n\t\t</p>\n\t</div>\n\n\t<div class=\"row\">\n\t\t<div class=\"col-xs-7\">\n\t\t\t<div class=\"row\">\n\t\t\t\t<div class=\"col-xs-5 text-left\"><label>{{ _(\"Patient Name\") }}</label></div>\n\t\t\t\t<div class=\"col-xs-7 text-left \"><strong>{{ doc.patient }}</strong></div>\n\t\t\t</div>\n\t\t\t{% if doc.billing_address %}{% set address = frappe.get_doc(\"Address\", doc.billing_address) %}\n\t\t\t<div class=\"row\">\n\t\t\t\t<div class=\"col-xs-5 text-left\"><label>{{ _(\"Address\") }}</label></div>\n\t\t\t\t<div class=\"col-xs-7 text-left\">\n\t\t\t\t\t{% if address.address_line1 %} {{ address.address_line1 }}<br> {% endif %}\n\t\t\t\t\t{% if address.address_line2 %} {{ address.address_line2 }}<br> {% endif %}\n\t\t\t\t\t{% if address.pincode %} {{ address.pincode }} {% endif %}\n\t\t\t\t\t{% if address.city %} {{ address.city }}<br> {% endif %}\n\t\t\t\t\t{% if address.country %} {{ address.country }} {% endif %}\n\t\t\t\t</div>\n\t\t\t</div>\n\t\t\t{% endif %}\n\t\t</div>\n\n\t\t<div class=\"col-xs-5\">\n\t\t\t<div class=\"row\">\n\t\t\t\t<div class=\"col-xs-7 text-left\"><label>{{ _(\"Receipt Number\") }}</label></div>\n\t\t\t\t<div class=\"col-xs-5 text-left \">{{ doc.name }}</div>\n\t\t\t</div>\n\t\t\t<div class=\"row\">\n\t\t\t\t<div class=\"col-xs-7 text-left\"> <label>{{ _(\"Consultation Date\") }}</label> </div>\n\t\t\t\t<div class=\"col-xs-5 text-left \">{{ doc.get_formatted(\"transaction_date\") or ''}}</div>\n\t\t\t</div>\n\t\t</div>\n\t</div>\n\n\t<div class=\"row table-row\">\n\t<table class=\"table table-condensed table-bordered\">\n\t\t<tr>\n\t\t\t<th>{{ _(\"Description\") }}</th>\n\t\t\t<th>{{ _(\"Codification\") }}</th>\n\t\t\t<th>{{ _(\"Quantity\") }}</th>\n\t\t\t<th class=\"text-right\">{{ _(\"Rate\") }}</th>\n\t\t\t<th class=\"text-right\">{{ _(\"Amount\") }}</th>\n\t\t</tr>\n\t\t{%- for row in doc.codifications -%}\n\t\t<tbody>\n\t\t<tr>\n\t\t\t<td style=\"width: 45%;\">{{ row.description or '' }}</td>\n\t\t\t<td style=\"width: 15%;\">{{ row.codification or '' }}</td>\n\t\t\t<td style=\"width: 10%;\">{{ row.get_formatted(\"qty\") }}</td>\n\t\t\t<td style=\"width: 15%; text-align: right;\">{{ row.get_formatted(\"unit_price\", doc, \"EUR\") or ''}}</td>\n\t\t\t\t<td style=\"width: 15%; text-align: right;\">{{ row.get_formatted(\"total_amount\", doc, \"EUR\") or ''}}</td>\n\t\t</tr>\n\t\t{%- endfor -%}\n\t\t</tbody>\n\t</table>\n\t</div>\n\n\t<div class=\"row\">\n\t\t<div class=\"col-xs-6 text-right\"></div>\n\t\t<div class=\"col-xs-4 text-right\"><label>{{ _(\"Total\") }}</label></div>\n\t\t<div class=\"col-xs-2 text-right\">{{ doc.get_formatted(\"amount\", currency=\"EUR\") or '' }}</div>\n\t</div>\n\t<br>\n\n\t<div class=\"row\" style=\"margin-top: 200px\">\n\t\t<div class=\"col-xs-12 text-center\">{{ doc.legal_mentions or '' }}</div>\n\t</div>\n</div>",
 "idx": 0,
 "line_breaks": 0,
 "modified": "2023-08-21 14:47:53.385216",
 "modified_by": "Administrator",
 "module": "Accounting",
 "name": "Facture ToobibPro",
 "owner": "Administrator",
 "print_format_builder": 0,
 "print_format_type": "Jinja",
 "show_section_headings": 0,
 "standard": "Yes"
}
