{
 "background_color": "",
 "button_gradients": 0,
 "button_rounded_corners": 1,
 "button_shadows": 0,
 "creation": "2023-06-06 14:00:52.707575",
 "custom": 0,
 "custom_overrides": "",
 "custom_scss": ".navbar-light .navbar-nav .nav-link {\n  color: #4c5a67;\n  font-size: 1.2rem;\n  font-weight: 600;\n}",
 "docstatus": 0,
 "doctype": "Website Theme",
 "font_properties": "wght@300;400;500;600;700;800",
 "idx": 7,
 "ignored_apps": [],
 "js": "frappe.ready(() => {\n\t$(\".hero-content .btn-primary\").on(\"click\", (e) => {\n\t\te.preventDefault();\n\t\taccueillogin(\"lucile@toobib.org\", \"demotoobibpro\", \"/app\");\n\t});\n\n\t$(\".hero-content .btn-primary-light\").on(\"click\", (e) => {\n\t\te.preventDefault();\n\t\taccueillogin(\"isabelle@toobib.org\", \"demotoobibpro\", \"/me\");\n\t});\n\n\t$(\".navbar-nav .nav-link:contains('Mon compte')\").on(\"click\", (e) => {\n\t\te.preventDefault();\n\t\taccueillogin(\"isabelle@toobib.org\", \"demotoobibpro\", \"/me\");\n\t});\n\n\t$(\".for-login .email-field #login_email\").val(\"isabelle@toobib.org\");\n\t$(\".for-login .password-field #login_password\").val(\"demotoobibpro\");\n\n\t$(\".for-login\").append(\n\t\t\"<div class='text-center sign-up-message'>Pour vous connecter aux espaces de travail de ToobibPro, utilisez l'adresse <strong>lucile@toobib.org</strong></div>\"\n\t);\n});\n\nconst accueillogin = (username, password, target) => {\n\tfrappe\n\t\t.call({\n\t\t\tmethod: \"login\",\n\t\t\targs: {\n\t\t\t\tusr: username,\n\t\t\t\tpwd: password,\n\t\t\t},\n\t\t})\n\t\t.then((r) => {\n\t\t\tif (r.exc) {\n\t\t\t\talert(__(\"Error, please contact help@dokos.cloud\"));\n\t\t\t} else {\n\t\t\t\tconsole.log(\"Logged in\");\n\t\t\t\twindow.location.href = target;\n\t\t\t}\n\t\t});\n};\n",
 "modified": "2023-10-06 12:15:43.928237",
 "modified_by": "Administrator",
 "module": "ToobibPro Website",
 "name": "ToobibPro",
 "primary_color": "Rose ToobibPro",
 "sidebar_color": "",
 "theme": "ToobibPro",
 "theme_scss": "$primary: #0aa8a7;$enable-shadows: false;\n$enable-gradients: false;\n$enable-rounded: true;\n\n// Bootstrap Variable Overrides\n\n\n// Import themes from installed apps\n@import \"frappe/public/scss/website.bundle\";\n\n\n\n// Custom Theme\n.navbar-light .navbar-nav .nav-link {\n  color: #4c5a67;\n  font-size: 1.2rem;\n  font-weight: 600;\n}\n\n:root {\n\t\n\t--primary: #{$primary};\n\t--primary-color: #{$primary};\n\t--web-sidebar-bg: #{$sidebar-bg};\n\t--web-sidebar-bg-alpha: 1;\n\t}",
 "theme_url": "/files/website_theme/toobibpro_style.css"
}
