{
 "actions": [],
 "allow_import": 1,
 "autoname": "naming_series:",
 "creation": "2019-04-18 10:32:47.872825",
 "doctype": "DocType",
 "document_type": "Document",
 "engine": "InnoDB",
 "field_order": [
  "entry_type_and_date",
  "operation_type",
  "title",
  "naming_series",
  "column_break1",
  "posting_date",
  "practitioner",
  "substitute",
  "section_break_8",
  "get_cash_payments",
  "payment_items",
  "payments_total",
  "2_add_edit_gl_entries",
  "items",
  "section_break_15",
  "profit_or_loss_account",
  "column_break_17",
  "practitioner_account",
  "column_break_19",
  "equity_account",
  "section_break99",
  "difference",
  "clearance_date",
  "section_break_16",
  "note",
  "amended_from"
 ],
 "fields": [
  {
   "fieldname": "entry_type_and_date",
   "fieldtype": "Section Break",
   "options": "fa fa-flag"
  },
  {
   "fieldname": "title",
   "fieldtype": "Data",
   "label": "Title"
  },
  {
   "default": "Miscellaneous Operation",
   "fieldname": "operation_type",
   "fieldtype": "Select",
   "in_list_view": 1,
   "in_standard_filter": 1,
   "label": "Operation Type",
   "oldfieldname": "voucher_type",
   "oldfieldtype": "Select",
   "options": "Miscellaneous Operation\nInternal Transfer\nCash Deposit\nPersonal Credit or Debit\nFee Retrocession\nAnnual Closing",
   "reqd": 1,
   "search_index": 1
  },
  {
   "default": "OD-.YYYY.-",
   "fieldname": "naming_series",
   "fieldtype": "Select",
   "hidden": 1,
   "label": "Series",
   "no_copy": 1,
   "oldfieldname": "naming_series",
   "oldfieldtype": "Select",
   "options": "OD-.YYYY.-",
   "print_hide": 1,
   "reqd": 1,
   "set_only_once": 1
  },
  {
   "fieldname": "column_break1",
   "fieldtype": "Column Break",
   "oldfieldtype": "Column Break",
   "width": "50%"
  },
  {
   "default": "Today",
   "fieldname": "posting_date",
   "fieldtype": "Date",
   "in_list_view": 1,
   "label": "Posting Date",
   "no_copy": 1,
   "oldfieldname": "posting_date",
   "oldfieldtype": "Date",
   "reqd": 1,
   "search_index": 1
  },
  {
   "fieldname": "practitioner",
   "fieldtype": "Link",
   "in_list_view": 1,
   "in_standard_filter": 1,
   "label": "Practitioner",
   "oldfieldname": "company",
   "oldfieldtype": "Link",
   "options": "Professional Information Card",
   "print_hide": 1,
   "remember_last_selected_value": 1,
   "reqd": 1,
   "search_index": 1
  },
  {
   "fieldname": "2_add_edit_gl_entries",
   "fieldtype": "Section Break",
   "oldfieldtype": "Section Break",
   "options": "fa fa-table"
  },
  {
   "depends_on": "eval:doc.operation_type!=\"Annual Closing\"",
   "fieldname": "items",
   "fieldtype": "Table",
   "label": "Accounting Entries",
   "mandatory_depends_on": "eval:doc.operation_type!=\"Annual Closing\"",
   "oldfieldname": "entries",
   "oldfieldtype": "Table",
   "options": "Miscellaneous Operation Items"
  },
  {
   "depends_on": "eval:doc.operation_type!=\"Annual Closing\"",
   "fieldname": "section_break99",
   "fieldtype": "Section Break"
  },
  {
   "fieldname": "difference",
   "fieldtype": "Currency",
   "label": "Difference",
   "no_copy": 1,
   "oldfieldname": "difference",
   "oldfieldtype": "Currency",
   "print_hide": 1,
   "read_only": 1
  },
  {
   "fieldname": "clearance_date",
   "fieldtype": "Date",
   "label": "Clearance Date",
   "no_copy": 1,
   "oldfieldname": "clearance_date",
   "oldfieldtype": "Date",
   "read_only": 1,
   "search_index": 1
  },
  {
   "fieldname": "section_break_16",
   "fieldtype": "Section Break"
  },
  {
   "fieldname": "note",
   "fieldtype": "Small Text",
   "label": "Note",
   "oldfieldname": "remark",
   "oldfieldtype": "Small Text"
  },
  {
   "fieldname": "amended_from",
   "fieldtype": "Link",
   "label": "Amended From",
   "no_copy": 1,
   "options": "Miscellaneous Operation",
   "print_hide": 1,
   "read_only": 1
  },
  {
   "depends_on": "eval:doc.operation_type==\"Cash Deposit\"",
   "fieldname": "section_break_8",
   "fieldtype": "Section Break"
  },
  {
   "fieldname": "payment_items",
   "fieldtype": "Table",
   "label": "Corresponding Payments",
   "options": "Cash Deposit Payments"
  },
  {
   "fieldname": "get_cash_payments",
   "fieldtype": "Button",
   "label": "Get all outstanding cash payments"
  },
  {
   "fieldname": "payments_total",
   "fieldtype": "Currency",
   "label": "Total",
   "read_only": 1
  },
  {
   "depends_on": "eval:doc.operation_type === \"Fee Retrocession\"",
   "fieldname": "substitute",
   "fieldtype": "Link",
   "label": "Substitute",
   "mandatory_depends_on": "eval:doc.operation_type === \"Fee Retrocession\"",
   "options": "Professional Information Card"
  },
  {
   "depends_on": "eval:doc.operation_type == \"Annual Closing\"",
   "fieldname": "section_break_15",
   "fieldtype": "Section Break"
  },
  {
   "fieldname": "profit_or_loss_account",
   "fieldtype": "Link",
   "label": "Profit or loss account",
   "mandatory_depends_on": "eval:doc.operation_type == \"Annual Closing\"",
   "options": "Accounting Item"
  },
  {
   "fieldname": "column_break_17",
   "fieldtype": "Column Break"
  },
  {
   "fieldname": "practitioner_account",
   "fieldtype": "Link",
   "label": "Practitioner account",
   "mandatory_depends_on": "eval:doc.operation_type == \"Annual Closing\"",
   "options": "Accounting Item"
  },
  {
   "fieldname": "column_break_19",
   "fieldtype": "Column Break"
  },
  {
   "fieldname": "equity_account",
   "fieldtype": "Link",
   "label": "Equity account",
   "mandatory_depends_on": "eval:doc.operation_type == \"Annual Closing\"",
   "options": "Accounting Item"
  }
 ],
 "icon": "fa fa-file-text",
 "is_submittable": 1,
 "links": [],
 "modified": "2023-10-12 22:25:39.318438",
 "modified_by": "Administrator",
 "module": "Accounting",
 "name": "Miscellaneous Operation",
 "naming_rule": "By \"Naming Series\" field",
 "owner": "Administrator",
 "permissions": [
  {
   "amend": 1,
   "cancel": 1,
   "create": 1,
   "email": 1,
   "export": 1,
   "print": 1,
   "read": 1,
   "report": 1,
   "role": "System Manager",
   "select": 1,
   "share": 1,
   "submit": 1,
   "write": 1
  },
  {
   "amend": 1,
   "cancel": 1,
   "create": 1,
   "email": 1,
   "export": 1,
   "print": 1,
   "read": 1,
   "report": 1,
   "role": "Midwife",
   "select": 1,
   "share": 1,
   "submit": 1,
   "write": 1
  },
  {
   "amend": 1,
   "cancel": 1,
   "create": 1,
   "email": 1,
   "export": 1,
   "print": 1,
   "read": 1,
   "report": 1,
   "role": "Midwife Substitute",
   "select": 1,
   "share": 1,
   "submit": 1,
   "write": 1
  },
  {
   "amend": 1,
   "cancel": 1,
   "create": 1,
   "email": 1,
   "export": 1,
   "print": 1,
   "read": 1,
   "report": 1,
   "role": "Physician",
   "select": 1,
   "share": 1,
   "submit": 1,
   "write": 1
  }
 ],
 "search_fields": "operation_type,posting_date",
 "sort_field": "modified",
 "sort_order": "DESC",
 "states": [],
 "title_field": "title",
 "track_changes": 1
}
