{
 "button_label": "",
 "button_view": "No button",
 "creation": "2023-03-28 17:59:49.185134",
 "docstatus": 0,
 "doctype": "Summary Card",
 "dt": "ToDo",
 "idx": 0,
 "is_standard": 1,
 "label": "Consultations",
 "modified": "2023-08-30 11:24:03.616238",
 "modified_by": "Administrator",
 "module": "Patients",
 "name": "Consultations",
 "owner": "Administrator",
 "rows": [
  {
   "collapsible": 0,
   "counter_format": "#",
   "filters_code": "",
   "icon": "uil uil-file",
   "icon_first": 0,
   "label": "Draft",
   "type": "Section Break"
  },
  {
   "collapsible": 1,
   "counter_format": "#",
   "dt": "Gynecological Consultation",
   "filters_code": "draft",
   "icon_first": 0,
   "label": "Gynecological Consultation",
   "type": "Count"
  },
  {
   "collapsible": 1,
   "color": "",
   "counter_format": "#",
   "dt": "Birth Preparation Consultation",
   "filters_code": "draft",
   "icon_first": 0,
   "label": "Birth Preparation Consultation",
   "type": "Count"
  },
  {
   "collapsible": 1,
   "color": "",
   "counter_format": "#",
   "dt": "Early Postnatal Consultation",
   "filters_code": "draft",
   "icon_first": 0,
   "label": "Early Postnatal Consultation",
   "type": "Count"
  },
  {
   "collapsible": 1,
   "color": "",
   "counter_format": "#",
   "dt": "Postnatal Consultation",
   "filters_code": "draft",
   "icon_first": 0,
   "label": "Postnatal Consultation",
   "type": "Count"
  },
  {
   "collapsible": 1,
   "color": "",
   "counter_format": "#",
   "dt": "Perineum Rehabilitation Consultation",
   "filters_code": "draft",
   "icon_first": 0,
   "label": "Perineum Rehabilitation Consultation",
   "type": "Count"
  },
  {
   "collapsible": 1,
   "color": "",
   "counter_format": "#",
   "dt": "Pregnancy Consultation",
   "filters_code": "draft",
   "icon_first": 0,
   "label": "Pregnancy Consultation",
   "type": "Count"
  },
  {
   "collapsible": 1,
   "counter_format": "#",
   "dt": "Free Consultation",
   "filters_code": "draft",
   "icon_first": 0,
   "label": "Free Consultation",
   "type": "Count"
  },
  {
   "collapsible": 0,
   "counter_format": "#",
   "dt": "Revenue",
   "filters_code": "",
   "icon": "uil uil-bill",
   "icon_first": 0,
   "label": "Revenue",
   "type": "Section Break"
  },
  {
   "collapsible": 1,
   "counter_format": "#",
   "dt": "Revenue",
   "filters_code": "draft",
   "icon_first": 0,
   "label": "Draft",
   "type": "Count"
  },
  {
   "collapsible": 1,
   "counter_format": "#",
   "dt": "Revenue",
   "filters_code": "[[\"status\",\"=\",\"Unpaid\"]]",
   "icon_first": 0,
   "label": "Unpaid",
   "type": "Count"
  }
 ],
 "show_assigned_to_me": 0,
 "show_liked_by_me": 0
}
