{
 "add_total_row": 1,
 "columns": [],
 "creation": "2019-06-13 16:01:00.118800",
 "disabled": 0,
 "docstatus": 0,
 "doctype": "Report",
 "filters": [],
 "idx": 0,
 "is_standard": "Yes",
 "letter_head": "",
 "letterhead": null,
 "modified": "2023-10-12 22:32:08.939930",
 "modified_by": "Administrator",
 "module": "Accounting",
 "name": "Revenue Journal",
 "owner": "Administrator",
 "prepared_report": 0,
 "ref_doctype": "Revenue",
 "report_name": "Revenue Journal",
 "report_type": "Script Report",
 "roles": [
  {
   "role": "System Manager"
  },
  {
   "role": "Midwife"
  },
  {
   "role": "Midwife Substitute"
  },
  {
   "role": "Physician"
  }
 ],
 "use_tabulator": 0
}
