{
 "align_labels_right": 0,
 "creation": "2017-09-04 18:55:21.924659",
 "css": ".col-xs-4, .col-xs-6, .col-xs-8, .col-xs-12 {\n\tpadding-top: 15px;\n}\n\ntable, tr, td, th, tbody, thead, tfoot, .col-xs-4, .col-xs-6, .col-xs-8, .col-xs-12, section {\n\tpage-break-inside: avoid !important;\n}\n\nh1, h2, h3, h4, h5, h6, p {\n\tcolor: #434d56 !important;\n}\n\nlabel, div {\n\tcolor: #4f5a64 !important;\n}\n\n.print-heading {\n\tmargin: 0.4in !important;\n\ttext-align: left;\n\ttext-transform: uppercase;\n\tpadding-bottom: 20px;\n\tmargin-bottom: 20px;\n\tborder-bottom: 1px solid #d1d8dd;\n}\n\n.print-format {\n\tpadding: 0;\n\tborder-radius: 5px;\n\tmargin: auto;\n\tposition: relative;\n}\n  \n.print-format th {\n\tbackground-color: #fff !important;\n}\n  \n.header-html {\n\tpadding: 0.4in;\n\tbackground: #f5fafc !important;\n\tborder-radius: 5px 5px 0 0;\n\twidth: 100%;\n}\n  \n.body-html {\n\tpadding: 0 0.8in 0.8in 0.8in;\n}\n  \n.table > tbody + tbody {\n\tborder-top: 1px solid #d1d8dd;\n}\n  \n.table > tbody > tr > th {\n\tborder-bottom: 1px solid #d1d8dd !important;\n}\n  \n.table > tbody > tr > td {\n\tborder-bottom: 1px solid #d1d8dd;\n}\n\n.vertical-table > tbody > tr > th {\n\tborder-right: 1px solid #d1d8dd !important;\n\twidth: 100px;\n}\n  \n@media print {\n\th1, h2, h3, h4, h5, h6, p, th, td, strong, a, b, ul, li {\n\t\tcolor: #434d56 !important;\n\t}\n\t.print-format {\n\t    padding: 0 25px;\n\t}\n\t.print-heading {\n\t\tmargin-top: 25mm;\n\t\tmargin-bottom: 25mm;\n\t\tcolor: #657381 !important;\n\t}\n\t.header-html {\n\t\tbackground: #f5fafc !important;\n\t}\n\t.body-html {\n\t\tpadding: 0 0.4in 0.4in 0.4in !important;\n\t}\n\t.letter-head-footer {\n\t\tpadding-top: 20px;\n\t}\n\ta[href]:after {\n\t\tcontent: none;\n\t}\n}",
 "custom_format": 1,
 "disabled": 0,
 "doc_type": "Early Postnatal Consultation",
 "docstatus": 0,
 "doctype": "Print Format",
 "font": "Default",
 "html": "{% include \"templates/includes/folder_header.html\" %}\n\n<div class=\"body-html\">\n\t<section>\n\t\t<div class=\"col-xs-4\">\n\t\t\t<label>{{ _(\"Consultation Type\") }}</label>\n\t\t\t<p>{{ doc.consultation_type or '' }}</p>\n\t\t</div>\n\t\t{% if doc.consultation_purpose and doc.consultation_type in [\"Breastfeeding\", \"Baby\"] %}\n\t\t<div class=\"col-xs-4\">\n\t\t\t<label>{{ _(\"Consultation Purpose\") }}</label>\n\t\t\t<p>{{ doc.consultation_purpose or '' }}</p>\n\t\t</div>\n\t\t{% endif %}\n\t</section>\n\t<section>\n\t\t{% if doc.mother_general_health or doc.mother_pain_rating %}\n\t\t<div>\n\t\t\t<h4>{{ _(\"Mother\") }}</h4>\n\t\t</div>\n\t\t<div class=\"row data-field\">\n\t\t\t{% if doc.mother_general_health %}\n\t\t\t<div class=\"col-xs-4\">\n\t\t\t\t<label>{{ _(\"General Health\") }}</label>\n\t\t\t\t{{ doc.mother_general_health }}</div>\n\t\t\t{% endif %}\n\t\t\t{% if doc.mother_pain_rating %}\n\t\t\t<div class=\"col-xs-4\">\n\t\t\t\t<label>{{ _(\"Mother Pain Rating\") }}</label>\n\t\t\t\t{{ doc.mother_pain_rating }}</div>\n\t\t\t{% endif %}\n\t\t</div>\n\t\t<br>\n\t\t{% endif %}\n\t</section>\n\t<section>\n\t\t{% if doc.blood_pressure or doc.edema or doc.functional_signs_of_hypertension or doc.pulsations or\n\t\tdoc.urinary_functional_signs or doc.mother_temperature or doc.digestive_functional_signs %}\n\t\t<div class=\"row data-field\">\n\t\t\t{% if doc.blood_pressure %}\n\t\t\t<div class=\"col-xs-4\">\n\t\t\t\t<label>{{ _(\"Blood Pressure\") }}</label>\n\t\t\t\t<p>{{ doc.blood_pressure }}</p>\n\t\t\t</div>\n\t\t\t{% endif %}\n\t\t\t{% if doc.pulsations %}\n\t\t\t<div class=\"col-xs-4\">\n\t\t\t\t<label>{{ _(\"Pulsations\") }}</label>\n\t\t\t\t<p>{{ doc.pulsations }}</p>\n\t\t\t</div>\n\t\t\t{% endif %}\n\t\t\t{% if doc.mother_temperature %}\n\t\t\t<div class=\"col-xs-4\">\n\t\t\t\t<label>{{ _(\"Temperature\") }}</label>\n\t\t\t\t<p>{{ doc.mother_temperature }}</p>\n\t\t\t</div>\n\t\t\t{% endif %}\n\t\t\t{% if doc.edema_details %}\n\t\t\t<div class=\"col-xs-4\">\n\t\t\t\t<label>{{ _(\"Edema\") }}</label>\n\t\t\t\t<p>{{ doc.edema_details }}</p>\n\t\t\t</div>\n\t\t\t{% endif %}\n\t\t\t{% if doc.ufs_details %}\n\t\t\t<div class=\"col-xs-4\">\n\t\t\t\t<label>{{ _(\"Urinary Functional Signs\") }}</label>\n\t\t\t\t<p>{{ doc.ufs_details }}</p>\n\t\t\t</div>\n\t\t\t{% endif %}\n\t\t\t{% if doc.dfs_details %}\n\t\t\t<div class=\"col-xs-4\">\n\t\t\t\t<label>{{ _(\"Digestive Functional Signs\") }}</label>\n\t\t\t\t<p>{{ doc.dfs_details }}</p>\n\t\t\t</div>\n\t\t\t{% endif %}\n\t\t\t{% if doc.functional_signs_of_hypertension_details %}\n\t\t\t<div class=\"col-xs-4\">\n\t\t\t\t<label>{{ _(\"Functional Signs of Hypertension\") }}</label>\n\t\t\t\t<p>{{ doc.functional_signs_of_hypertension_details }}</p>\n\t\t\t</div>\n\t\t\t{% endif %}\n\t\t</div>\n\t\t<hr>\n\t\t<br>\n\t\t{% endif %}\n\t</section>\n\t<section>\n\t\t{% if doc.breasts or doc.uterus or doc.lochia or doc.suture_scar %}\n\t\t<div class=\"row data-field\">\n\t\t\t{% if doc.breasts %}\n\t\t\t<div class=\"col-xs-4\">\n\t\t\t\t<label>{{ _(\"Breasts\") }}</label>\n\t\t\t\t<p>{{ doc.breasts }}</p>\n\t\t\t</div>\n\t\t\t{% endif %}\n\t\t\t{% if doc.uterus %}\n\t\t\t<div class=\"col-xs-4\">\n\t\t\t\t<label>{{ _(\"Uterus\") }}</label>\n\t\t\t\t<p>{{ doc.uterus }}</p>\n\t\t\t</div>\n\t\t\t{% endif %}\n\t\t\t{% if doc.lochia %}\n\t\t\t<div class=\"col-xs-4\">\n\t\t\t\t<label>{{ _(\"Lochia\") }}</label>\n\t\t\t\t<p>{{ doc.lochia }}</p>\n\t\t\t</div>\n\t\t\t{% endif %}\n\t\t\t{% if doc.suture_scar %}\n\t\t\t<div class=\"col-xs-4\">\n\t\t\t\t<label>{{ _(\"Suture/C-Section Scar\") }}</label>\n\t\t\t\t<p>{{ doc.suture_scar }}</p>\n\t\t\t</div>\n\t\t\t{% endif %}\n\t\t</div>\n\t\t<hr>\n\t\t<br>\n\t\t{% endif %}\n\t</section>\n\t<section>\n\t\t{% if doc.psychological_state %}\n\t\t<div class=\"row data-field\">\n\t\t\t<div class=\"col-xs-12\">\n\t\t\t\t<label>{{ _(\"Psychological State/Mother-Child Bond\") }}</label>\n\t\t\t\t<p>{{ doc.get_formatted(\"psychological_state\") }}</p>\n\t\t\t</div>\n\t\t</div>\n\t\t<br>\n\t\t{% endif %}\n\t</section>\n\t<section>\n\t\t{% if doc.drugs|length != 0 %}\n\t\t<div class=\"col-xs-12\">\n\t\t\t<table class=\"table table-condensed\">\n\t\t\t\t<tr>\n\t\t\t\t\t<th>{{ _(\"Drug\") }}</th>\n\t\t\t\t\t<th>{{ _(\"Notes\") }}</th>\n\t\t\t\t</tr>\n\t\t\t\t<tbody>\n\t\t\t\t\t{%- for row in doc.drugs -%}\n\t\t\t\t\t<tr>\n\t\t\t\t\t\t<td style=\"width: 100px;\">{{ row.drug or '' }}</td>\n\t\t\t\t\t\t<td style=\"width: 200px;\">{{ row.notes or '' }}</td>\n\t\t\t\t\t</tr>\n\t\t\t\t\t{% endfor %}\n\t\t\t\t</tbody>\n\t\t\t</table>\n\t\t</div>\n\t\t<br>\n\t\t{% endif %}\n</div>\n</section>\n<section>\n\t{% if doc.education_advices %}\n\t<div class=\"row data-field\">\n\t\t<div class=\"col-xs-12\">\n\t\t\t<label>{{ _(\"Education/Advices\") }}</label>\n\t\t\t<p>{{ doc.get_formatted(\"education_advices\") }}</p>\n\t\t</div>\n\t</div>\n\t<hr>\n\t<br>\n\t{% endif %}\n</section>\n<section>\n\t{% if doc.prescription %}\n\t<div class=\"row data-field\">\n\t\t<div class=\"col-xs-12\">\n\t\t\t<label>{{ _(\"Prescription Written\") }}</label>\n\t\t\t<p>{{ doc.get_formatted(\"prescription\") }}</p>\n\t\t</div>\n\t</div>\n\t<hr>\n\t<br>\n\t{% endif %}\n</section>\n<section>\n\t{% if doc.newborn_general_health or doc.newborn_temperature %}\n\t<div>\n\t\t<h4>{{ _(\"Newborn\") }}</h4>\n\t</div>\n\t<div class=\"row data-field\">\n\t\t{% if doc.newborn_fullname %}\n\t\t<div class=\"col-xs-4\">\n\t\t\t<label>{{ _(\"Child Full Name\") }}</label>\n\t\t\t<p>{{ doc.newborn_fullname }}</p>\n\t\t</div>\n\t\t{% endif %}\n\t\t{% if doc.newborn_general_health %}\n\t\t<div class=\"col-xs-4\">\n\t\t\t<label>{{ _(\"General Health\") }}</label>\n\t\t\t<p>{{ doc.newborn_general_health }}</p>\n\t\t</div>\n\t\t{% endif %}\n\t\t{% if doc.newborn_temperature %}\n\t\t<div class=\"col-xs-4\">\n\t\t\t<label>{{ _(\"Temperature\") }}</label>\n\t\t\t<p>{{ doc.newborn_temperature }}</p>\n\t\t</div>\n\t\t{% endif %}\n\t</div>\n\t<br>\n\t{% endif %}\n</section>\n<section>\n\t{% if doc.cardiac_frequency or doc.respiratory_rate %}\n\t<div>\n\t\t<h5>{{ _(\"Newborn Exam\") }}</h5>\n\t</div>\n\t<div class=\"row data-field\">\n\t\t{% if doc.cardiac_frequency %}\n\t\t<div class=\"col-xs-4\">\n\t\t\t<label>{{ _(\"Cardiac Frequency\") }}</label>\n\t\t\t<p>{{ doc.cardiac_frequency }}</p>\n\t\t</div>\n\t\t{% endif %}\n\t\t{% if doc.respiratory_rate %}\n\t\t<div class=\"col-xs-4\">\n\t\t\t<label>{{ _(\"Respiratory Rate\") }}</label>\n\t\t\t<p>{{ doc.respiratory_rate }}</p>\n\t\t</div>\n\t\t{% endif %}\n\t</div>\n\t<br>\n\t{% endif %}\n</section>\n<section>\n\t{% if doc.normal_neurological_morphological_exam or doc.perceived_femoral_pulse or\n\tdoc.abnormal_neurological_morphological_exam or doc.perceived_femoral_pulse_details %}\n\t<div class=\"row data-field\">\n\t\t{% if doc.normal_neurological_morphological_exam %}\n\t\t<div class=\"col-xs-4\">\n\t\t\t<label>{{ _(\"Normal Neurological and Morphological Exam\") }}</label>\n\t\t\t<p>{{ _(\"Yes\") }}</p>\n\t\t</div>\n\t\t{% elif doc.abnormal_neurological_morphological_exam %}\n\t\t<div class=\"col-xs-4\">\n\t\t\t<label>{{ _(\"Abnormal Neurological and Morphological Exam\") }}</label>\n\t\t\t<p>{{ doc.abnormal_neurological_morphological_exam }}</p>\n\t\t</div>\n\t\t{% endif %}\n\t\t{% if doc.perceived_femoral_pulse %}\n\t\t<div class=\"col-xs-4\">\n\t\t\t<label>{{ _(\"Femoral Pulse Perceived on Both Sides\") }}</label>\n\t\t\t<p>{{ _(\"Yes\") }}</p>\n\t\t</div>\n\t\t{% elif doc.perceived_femoral_pulse_details %}\n\t\t<div class=\"col-xs-4\">\n\t\t\t<label>{{ _(\"If Femoral Pulse Not Perceived:\") }}</label>\n\t\t\t<p>{{ doc.perceived_femoral_pulse_details }}</p>\n\t\t</div>\n\t\t{% endif %}\n\t</div>\n\t<br>\n\t{% endif %}\n</section>\n<section>\n\t{% if doc.feeding_type or doc.effective_feeding_criterion or doc.number_meals_per_day!=\"0\" %}\n\t<div>\n\t\t<h5>{{ _(\"Feeding\") }}</h5>\n\t</div>\n\t<div class=\"row data-field\">\n\t\t{% if doc.feeding_type %}\n\t\t<div class=\"col-xs-4\">\n\t\t\t<label>{{ _(\"Feeding Type\") }}</label>\n\t\t\t<p>{{ _(doc.feeding_type) }}</p>\n\t\t</div>\n\t\t{% endif %}\n\t\t{% if doc.effective_feeding_criterion %}\n\t\t<div class=\"col-xs-4\">\n\t\t\t<label>{{ _(\"Effective Feeding Criterion\") }}</label>\n\t\t\t<p>{{ doc.effective_feeding_criterion }}</p>\n\t\t</div>\n\t\t{% endif %}\n\t\t{% if doc.number_meals_per_day %}\n\t\t<div class=\"col-xs-4\">\n\t\t\t<label>{{ _(\"Number of Meals per Day\") }}</label>\n\t\t\t<p>{{ doc.number_meals_per_day }}</p>\n\t\t</div>\n\t\t{% endif %}\n\t</div>\n\t<br>\n\t{% endif %}\n</section>\n<section>\n\t{% if doc.stools_urine or doc.vomiting or doc.jaundice_risk or doc.pain_rating or doc.vitamin_supplement or\n\tdoc.stools_urine_details %}\n\t<div class=\"row data-field\">\n\t\t{% if doc.stools_urine %}\n\t\t<div class=\"col-xs-4\">\n\t\t\t<label>{{ _(\"Stools/Urine\") }}</label>\n\t\t\t<p>{{ _(\"Yes\") }}</p>\n\t\t</div>\n\t\t{% elif doc.stools_urine_details %}\n\t\t<div class=\"col-xs-4\">\n\t\t\t<label>{{ _(\"Stools/Urine Issue:\") }}</label>\n\t\t\t<p>{{ doc.stools_urine_details }}</p>\n\t\t</div>\n\t\t{% endif %}\n\t\t{% if doc.vomiting_details %}\n\t\t<div class=\"col-xs-4\">\n\t\t\t<label>{{ _(\"Vomiting Details:\") }}</label>\n\t\t\t<p>{{ doc.vomiting_details }}</p>\n\t\t</div>\n\t\t{% endif %}\n\t\t{% if doc.jaundice_risk_details %}\n\t\t<div class=\"col-xs-4\">\n\t\t\t<label>{{ _(\"Jaundice Details:\") }}</label>\n\t\t\t<p>{{ doc.jaundice_risk_details }}</p>\n\t\t</div>\n\t\t{% endif %}\n\t\t{% if doc.pain_rating_details %}\n\t\t<div class=\"col-xs-4\">\n\t\t\t<label>{{ _(\"Pain Rating Details:\") }}</label>\n\t\t\t<p>{{ doc.pain_rating_details }}</p>\n\t\t</div>\n\t\t{% endif %}\n\t</div>\n\t<br>\n\t{% endif %}\n</section>\n<section>\n\t{% if doc.weight_of_the_day or doc.weight_gain %}\n\t<div class=\"row data-field\">\n\t\t{% if doc.weight_of_the_day %}\n\t\t<div class=\"col-xs-4\">\n\t\t\t<label>{{ _(\"Weight of the Day\") }}</label>\n\t\t\t<p>{{ doc.weight_of_the_day }} g</p>\n\t\t</div>\n\t\t{% endif %}\n\t\t{% if doc.weight_gain %}\n\t\t<div class=\"col-xs-4\">\n\t\t\t<label>{{ _(\"Weight Gain\") }}</label>\n\t\t\t<p>{{ doc.weight_gain }} g</p>\n\t\t</div>\n\t\t{% endif %}\n\t</div>\n\t<hr>\n\t<br>\n\t{% endif %}\n</section>\n{% if doc.newborn_fullname_2 %}\n<section>\n\t{% if doc.newborn_general_health_2 or doc.newborn_temperature_2 %}\n\t<div>\n\t\t<h4>{{ _(\"Second Newborn\") }}</h4>\n\t</div>\n\t<div class=\"row data-field\">\n\t\t{% if doc.newborn_fullname_2 %}\n\t\t<div class=\"col-xs-4\">\n\t\t\t<label>{{ _(\"Child Full Name\") }}</label>\n\t\t\t<p>{{ doc.newborn_fullname_2 }}</p>\n\t\t</div>\n\t\t{% endif %}\n\t\t{% if doc.newborn_general_health_2 %}\n\t\t<div class=\"col-xs-4\">\n\t\t\t<label>{{ _(\"General Health\") }}</label>\n\t\t\t<p>{{ doc.newborn_general_health_2 }}</p>\n\t\t</div>\n\t\t{% endif %}\n\t\t{% if doc.newborn_temperature_2 %}\n\t\t<div class=\"col-xs-4\">\n\t\t\t<label>{{ _(\"Temperature\") }}</label>\n\t\t\t<p>{{ doc.newborn_temperature_2 }}</p>\n\t\t</div>\n\t\t{% endif %}\n\t</div>\n\t<br>\n\t{% endif %}\n</section>\n<section>\n\t{% if doc.cardiac_frequency_2 or doc.respiratory_rate_2 %}\n\t<div>\n\t\t<h5>{{ _(\"Newborn Exam\") }}</h5>\n\t</div>\n\t<div class=\"row data-field\">\n\t\t{% if doc.cardiac_frequency_2 %}\n\t\t<div class=\"col-xs-4\">\n\t\t\t<label>{{ _(\"Cardiac Frequency\") }}</label>\n\t\t\t<p>{{ doc.cardiac_frequency_2 }}</p>\n\t\t</div>\n\t\t{% endif %}\n\t\t{% if doc.respiratory_rate_2 %}\n\t\t<div class=\"col-xs-4\">\n\t\t\t<label>{{ _(\"Respiratory Rate\") }}</label>\n\t\t\t<p>{{ doc.respiratory_rate_2 }}</p>\n\t\t</div>\n\t\t{% endif %}\n\t</div>\n\t<br>\n\t{% endif %}\n</section>\n<section>\n\t{% if doc.normal_neurological_morphological_exam_2 or doc.perceived_femoral_pulse_2 or\n\tdoc.abnormal_neurological_morphological_exam_2 or doc.perceived_femoral_pulse_details_2 %}\n\t<div class=\"row data-field\">\n\t\t{% if doc.normal_neurological_morphological_exam_2 %}\n\t\t<div class=\"col-xs-4\">\n\t\t\t<label>{{ _(\"Normal Neurological and Morphological Exam\") }}</label>\n\t\t\t<p>{{ _(\"Yes\") }}</p>\n\t\t</div>\n\t\t{% elif doc.abnormal_neurological_morphological_exam_2 %}\n\t\t<div class=\"col-xs-4\">\n\t\t\t<label>{{ _(\"Abnormal Neurological and Morphological Exam\") }}</label>\n\t\t\t<p>{{ doc.abnormal_neurological_morphological_exam_2 }}</p>\n\t\t</div>\n\t\t{% endif %}\n\t\t{% if doc.perceived_femoral_pulse_2 %}\n\t\t<div class=\"col-xs-4\">\n\t\t\t<label>{{ _(\"Femoral Pulse Perceived on Both Sides\") }}</label>\n\t\t\t<p>{{ _(\"Yes\") }}</p>\n\t\t</div>\n\t\t{% elif doc.perceived_femoral_pulse_details_2 %}\n\t\t<div class=\"col-xs-4\">\n\t\t\t<label>{{ _(\"If Femoral Pulse Not Perceived:\") }}</label>\n\t\t\t<p>{{ doc.perceived_femoral_pulse_details_2 }}</p>\n\t\t</div>\n\t\t{% endif %}\n\t</div>\n\t<br>\n\t{% endif %}\n</section>\n<section>\n\t{% if doc.feeding_type_2 or doc.effective_feeding_criterion_2 or doc.number_meals_per_day_2!=\"0\" %}\n\t<div>\n\t\t<h5>{{ _(\"Feeding\") }}</h5>\n\t</div>\n\t<div class=\"row data-field\">\n\t\t{% if doc.feeding_type_2 %}\n\t\t<div class=\"col-xs-4\">\n\t\t\t<label>{{ _(\"Feeding Type\") }}</label>\n\t\t\t<p>{{ _(doc.feeding_type_2) }}</p>\n\t\t</div>\n\t\t{% endif %}\n\t\t{% if doc.effective_feeding_criterion_2 %}\n\t\t<div class=\"col-xs-4\">\n\t\t\t<label>{{ _(\"Effective Feeding Criterion\") }}</label>\n\t\t\t<p>{{ doc.effective_feeding_criterion_2 }}</p>\n\t\t</div>\n\t\t{% endif %}\n\t\t{% if doc.number_meals_per_day_2 %}\n\t\t<div class=\"col-xs-4\">\n\t\t\t<label>{{ _(\"Number of Meals per Day\") }}</label>\n\t\t\t<p>{{ doc.number_meals_per_day_2 }}</p>\n\t\t</div>\n\t\t{% endif %}\n\t</div>\n\t<br>\n\t{% endif %}\n</section>\n<section>\n\t{% if doc.stools_urine_2 or doc.vomiting_2 or doc.jaundice_risk_2 or doc.pain_rating_2 or doc.vitamin_supplement_2 or\n\tdoc.stools_urine_details_2 %}\n\t<div class=\"row data-field\">\n\t\t{% if doc.stools_urine_2 %}\n\t\t<div class=\"col-xs-4\">\n\t\t\t<label>{{ _(\"Stools/Urine\") }}</label>\n\t\t\t<p>{{ _(\"Yes\") }}</p>\n\t\t</div>\n\t\t{% elif doc.stools_urine_details_2 %}\n\t\t<div class=\"col-xs-4\">\n\t\t\t<label>{{ _(\"Stools/Urine Issue:\") }}</label>\n\t\t\t<p>{{ doc.stools_urine_details_2 }}</p>\n\t\t</div>\n\t\t{% endif %}\n\t\t{% if doc.vomiting_details_2 %}\n\t\t<div class=\"col-xs-4\">\n\t\t\t<label>{{ _(\"Vomiting Details:\") }}</label>\n\t\t\t<p>{{ doc.vomiting_details_2 }}</p>\n\t\t</div>\n\t\t{% endif %}\n\t\t{% if doc.jaundice_risk_details_2 %}\n\t\t<div class=\"col-xs-4\">\n\t\t\t<label>{{ _(\"Jaundice Details:\") }}</label>\n\t\t\t<p>{{ doc.jaundice_risk_details_2 }}</p>\n\t\t</div>\n\t\t{% endif %}\n\t\t{% if doc.pain_rating_details_2 %}\n\t\t<div class=\"col-xs-4\">\n\t\t\t<label>{{ _(\"Pain Rating Details:\") }}</label>\n\t\t\t<p>{{ doc.pain_rating_details_2 }}</p>\n\t\t</div>\n\t\t{% endif %}\n\t</div>\n\t<br>\n\t{% endif %}\n</section>\n<section>\n\t{% if doc.weight_of_the_day_2 or doc.weight_gain_2 %}\n\t<div class=\"row data-field\">\n\t\t{% if doc.weight_of_the_day_2 %}\n\t\t<div class=\"col-xs-4\">\n\t\t\t<label>{{ _(\"Weight of the Day\") }}</label>\n\t\t\t<p>{{ doc.weight_of_the_day_2 }} g</p>\n\t\t</div>\n\t\t{% endif %}\n\t\t{% if doc.weight_gain_2 %}\n\t\t<div class=\"col-xs-4\">\n\t\t\t<label>{{ _(\"Weight Gain\") }}</label>\n\t\t\t<p>{{ doc.weight_gain_2 }} g</p>\n\t\t</div>\n\t\t{% endif %}\n\t</div>\n\t<br>\n\t{% endif %}\n</section>\n<hr>\n{% endif %}\n{% if doc.newborn_fullname_3 %}\n<section>\n\t{% if doc.newborn_general_health_3 or doc.newborn_temperature_3 %}\n\t<div>\n\t\t<h4>{{ _(\"Third Newborn\") }}</h4>\n\t</div>\n\t<div class=\"row data-field\">\n\t\t{% if doc.newborn_fullname_3 %}\n\t\t<div class=\"col-xs-4\">\n\t\t\t<label>{{ _(\"Child Full Name\") }}</label>\n\t\t\t<p>{{ doc.newborn_fullname_3 }}</p>\n\t\t</div>\n\t\t{% endif %}\n\t\t{% if doc.newborn_general_health_3 %}\n\t\t<div class=\"col-xs-4\">\n\t\t\t<label>{{ _(\"General Health\") }}</label>\n\t\t\t<p>{{ doc.newborn_general_health_3 }}</p>\n\t\t</div>\n\t\t{% endif %}\n\t\t{% if doc.newborn_temperature_3 %}\n\t\t<div class=\"col-xs-4\">\n\t\t\t<label>{{ _(\"Temperature\") }}</label>\n\t\t\t<p>{{ doc.newborn_temperature_3 }}</p>\n\t\t</div>\n\t\t{% endif %}\n\t</div>\n\t<br>\n\t{% endif %}\n</section>\n<section>\n\t{% if doc.cardiac_frequency_3 or doc.respiratory_rate_3 %}\n\t<div>\n\t\t<h5>{{ _(\"Newborn Exam\") }}</h5>\n\t</div>\n\t<div class=\"row data-field\">\n\t\t{% if doc.cardiac_frequency_3 %}\n\t\t<div class=\"col-xs-4\">\n\t\t\t<label>{{ _(\"Cardiac Frequency\") }}</label>\n\t\t\t<p>{{ doc.cardiac_frequency_3 }}</p>\n\t\t</div>\n\t\t{% endif %}\n\t\t{% if doc.respiratory_rate_3 %}\n\t\t<div class=\"col-xs-4\">\n\t\t\t<label>{{ _(\"Respiratory Rate\") }}</label>\n\t\t\t<p>{{ doc.respiratory_rate_3 }}</p>\n\t\t</div>\n\t\t{% endif %}\n\t</div>\n\t<br>\n\t{% endif %}\n</section>\n<section>\n\t{% if doc.normal_neurological_morphological_exam_3 or doc.perceived_femoral_pulse_3 or\n\tdoc.abnormal_neurological_morphological_exam_3 or doc.perceived_femoral_pulse_details_3 %}\n\t<div class=\"row data-field\">\n\t\t{% if doc.normal_neurological_morphological_exam_3 %}\n\t\t<div class=\"col-xs-4\">\n\t\t\t<label>{{ _(\"Normal Neurological and Morphological Exam\") }}</label>\n\t\t\t<p>{{ _(\"Yes\") }}</p>\n\t\t</div>\n\t\t{% elif doc.abnormal_neurological_morphological_exam_3 %}\n\t\t<div class=\"col-xs-4\">\n\t\t\t<label>{{ _(\"Abnormal Neurological and Morphological Exam\") }}</label>\n\t\t\t<p>{{ doc.abnormal_neurological_morphological_exam_3 }}</p>\n\t\t</div>\n\t\t{% endif %}\n\t\t{% if doc.perceived_femoral_pulse_3 %}\n\t\t<div class=\"col-xs-4\">\n\t\t\t<label>{{ _(\"Femoral Pulse Perceived on Both Sides\") }}</label>\n\t\t\t<p>{{ _(\"Yes\") }}</p>\n\t\t</div>\n\t\t{% elif doc.perceived_femoral_pulse_details_3 %}\n\t\t<div class=\"col-xs-4\">\n\t\t\t<label>{{ _(\"If Femoral Pulse Not Perceived:\") }}</label>\n\t\t\t<p>{{ doc.perceived_femoral_pulse_details_3 }}</p>\n\t\t</div>\n\t\t{% endif %}\n\t</div>\n\t<br>\n\t{% endif %}\n</section>\n<section>\n\t{% if doc.feeding_type_3 or doc.effective_feeding_criterion_3 or doc.number_meals_per_day_3!=\"0\" %}\n\t<div>\n\t\t<h5>{{ _(\"Feeding\") }}</h5>\n\t</div>\n\t<div class=\"row data-field\">\n\t\t{% if doc.feeding_type_3 %}\n\t\t<div class=\"col-xs-4\">\n\t\t\t<label>{{ _(\"Feeding Type\") }}</label>\n\t\t\t<p>{{ _(doc.feeding_type_3) }}</p>\n\t\t</div>\n\t\t{% endif %}\n\t\t{% if doc.effective_feeding_criterion_3 %}\n\t\t<div class=\"col-xs-4\">\n\t\t\t<label>{{ _(\"Effective Feeding Criterion\") }}</label>\n\t\t\t<p>{{ doc.effective_feeding_criterion_3 }}</p>\n\t\t</div>\n\t\t{% endif %}\n\t\t{% if doc.number_meals_per_day_3 %}\n\t\t<div class=\"col-xs-4\">\n\t\t\t<label>{{ _(\"Number of Meals per Day\") }}</label>\n\t\t\t<p>{{ doc.number_meals_per_day_3 }}</p>\n\t\t</div>\n\t\t{% endif %}\n\t</div>\n\t<br>\n\t{% endif %}\n</section>\n<section>\n\t{% if doc.stools_urine_3 or doc.vomiting_3 or doc.jaundice_risk_3 or doc.pain_rating_3 or doc.vitamin_supplement_3 or\n\tdoc.stools_urine_details_3 %}\n\t<div class=\"row data-field\">\n\t\t{% if doc.stools_urine_3 %}\n\t\t<div class=\"col-xs-4\">\n\t\t\t<label>{{ _(\"Stools/Urine\") }}</label>\n\t\t\t<p>{{ _(\"Yes\") }}</p>\n\t\t</div>\n\t\t{% elif doc.stools_urine_details_3 %}\n\t\t<div class=\"col-xs-4\">\n\t\t\t<label>{{ _(\"Stools/Urine Issue:\") }}</label>\n\t\t\t<p>{{ doc.stools_urine_details_3 }}</p>\n\t\t</div>\n\t\t{% endif %}\n\t\t{% if doc.vomiting_details_3 %}\n\t\t<div class=\"col-xs-4\">\n\t\t\t<label>{{ _(\"Vomiting Details:\") }}</label>\n\t\t\t<p>{{ doc.vomiting_details_3 }}</p>\n\t\t</div>\n\t\t{% endif %}\n\t\t{% if doc.jaundice_risk_details_3 %}\n\t\t<div class=\"col-xs-4\">\n\t\t\t<label>{{ _(\"Jaundice Details:\") }}</label>\n\t\t\t<p>{{ doc.jaundice_risk_details_3 }}</p>\n\t\t</div>\n\t\t{% endif %}\n\t\t{% if doc.pain_rating_details_3 %}\n\t\t<div class=\"col-xs-4\">\n\t\t\t<label>{{ _(\"Pain Rating Details:\") }}</label>\n\t\t\t<p>{{ doc.pain_rating_details_3 }}</p>\n\t\t</div>\n\t\t{% endif %}\n\t</div>\n\t<br>\n\t{% endif %}\n</section>\n<section>\n\t{% if doc.weight_of_the_day_3 or doc.weight_gain_3 %}\n\t<div class=\"row data-field\">\n\t\t{% if doc.weight_of_the_day_3 %}\n\t\t<div class=\"col-xs-4\">\n\t\t\t<label>{{ _(\"Weight of the Day\") }}</label>\n\t\t\t<p>{{ doc.weight_of_the_day_3 }} g</p>\n\t\t</div>\n\t\t{% endif %}\n\t\t{% if doc.weight_gain_3 %}\n\t\t<div class=\"col-xs-4\">\n\t\t\t<label>{{ _(\"Weight Gain\") }}</label>\n\t\t\t<p>{{ doc.weight_gain_3 }} g</p>\n\t\t</div>\n\t\t{% endif %}\n\t</div>\n\t<br>\n\t{% endif %}\n</section>\n<hr>\n{% endif %}\n<section>\n\t{% if doc.comments %}\n\t<div>\n\t\t<h4>{{ _(\"Comments\") }}</h4>\n\t</div>\n\t<div class=\"row data-field\">\n\t\t<div class=\"col-xs-12\">\n\t\t\t{{ doc.comments }}</div>\n\t</div>\n\t<br>\n\t{% endif %}\n</section>\n<div id=\"footer-html\" class=\"visible-pdf\">\n\t{% if not no_letterhead and footer %}\n\t<div class=\"letter-head-footer\">\n\t\t{{ footer }}\n\t</div>\n\t{% endif %}\n\t<p class=\"text-center small page-number visible-pdf\">\n\t\t{{ _(\"Page {0} of {1}\").format('<span class=\"page\"></span>', '<span class=\"topage\"></span>') }}\n\t</p>\n</div>\n</div>",
 "idx": 0,
 "line_breaks": 0,
 "modified": "2023-08-17 11:55:49.499452",
 "modified_by": "Administrator",
 "module": "Patients",
 "name": "Early Postnatal Consultation",
 "owner": "Administrator",
 "print_format_builder": 0,
 "print_format_type": "Jinja",
 "show_section_headings": 0,
 "standard": "Yes"
}
