{
 "align_labels_right": 0,
 "creation": "2017-11-09 14:52:20.311068",
 "css": ".col-xs-4, .col-xs-6, .col-xs-8, .col-xs-12 {\n\tpadding-top: 15px;\n}\n\ntable, tr, td, th, tbody, thead, tfoot, .col-xs-4, .col-xs-6, .col-xs-8, .col-xs-12, section {\n\tpage-break-inside: avoid !important;\n}\n\nh1, h2, h3, h4, h5, h6, p {\n\tcolor: #434d56 !important;\n}\n\nlabel, div {\n\tcolor: #4f5a64 !important;\n}\n\n.print-heading {\n\tmargin: 0.4in !important;\n\ttext-align: left;\n\ttext-transform: uppercase;\n\tpadding-bottom: 20px;\n\tmargin-bottom: 20px;\n\tborder-bottom: 1px solid #d1d8dd;\n}\n\n.print-format {\n\tpadding: 0;\n\tborder-radius: 5px;\n\tmargin: auto;\n\tposition: relative;\n}\n  \n.print-format th {\n\tbackground-color: #fff !important;\n}\n  \n.header-html {\n\tpadding: 0.4in;\n\tbackground: #f5fafc !important;\n\tborder-radius: 5px 5px 0 0;\n\twidth: 100%;\n}\n  \n.body-html {\n\tpadding: 0 0.8in 0.8in 0.8in;\n}\n  \n.table > tbody + tbody {\n\tborder-top: 1px solid #d1d8dd;\n}\n  \n.table > tbody > tr > th {\n\tborder-bottom: 1px solid #d1d8dd !important;\n}\n  \n.table > tbody > tr > td {\n\tborder-bottom: 1px solid #d1d8dd;\n}\n\n.vertical-table > tbody > tr > th {\n\tborder-right: 1px solid #d1d8dd !important;\n\twidth: 100px;\n}\n  \n@media print {\n\th1, h2, h3, h4, h5, h6, p, th, td, strong, a, b, ul, li {\n\t\tcolor: #434d56 !important;\n\t}\n\t.print-format {\n\t    padding: 0 25px;\n\t}\n\t.print-heading {\n\t\tmargin-top: 25mm;\n\t\tmargin-bottom: 25mm;\n\t\tcolor: #657381 !important;\n\t}\n\t.header-html {\n\t\tbackground: #f5fafc !important;\n\t}\n\t.body-html {\n\t\tpadding: 0 0.4in 0.4in 0.4in !important;\n\t}\n\t.letter-head-footer {\n\t\tpadding-top: 20px;\n\t}\n\ta[href]:after {\n\t\tcontent: none;\n\t}\n}",
 "custom_format": 1,
 "disabled": 0,
 "doc_type": "Postnatal Consultation",
 "docstatus": 0,
 "doctype": "Print Format",
 "font": "Default",
 "html": "{% include \"templates/includes/folder_header.html\" %}\n\n<div class=\"body-html\">\n\n\t<section>\n\t\t{% if doc.weight or doc.edema or doc.urinary_functional_signs or doc.bmi or doc.asthenia or\n\t\tdoc.high_blood_pressure_signs or doc.blood_pressure %}\n\t\t<div>\n\t\t\t<h4>{{ _(\"Clinical Exam\") }}</h4>\n\t\t</div>\n\t\t<div class=\"row data-field\">\n\t\t\t{% if doc.weight %}\n\t\t\t<div class=\"col-xs-4\">\n\t\t\t\t<label>{{ _(\"Weight\") }}</label>\n\t\t\t\t{{ doc.weight }}</div>\n\t\t\t{% endif %}\n\t\t\t{% if doc.edema %}\n\t\t\t<div class=\"col-xs-4\">\n\t\t\t\t<label>{{ _(\"Edema\") }}</label>\n\t\t\t\t{{ doc.edema }}</div>\n\t\t\t{% endif %}\n\t\t\t{% if doc.urinary_functional_signs %}\n\t\t\t<div class=\"col-xs-4\">\n\t\t\t\t<label>{{ _(\"Urinary Functional Signs\") }}</label>\n\t\t\t\t{{ doc.urinary_functional_signs }}</div>\n\t\t\t{% endif %}\n\t\t\t{% if doc.bmi %}\n\t\t\t<div class=\"col-xs-4\">\n\t\t\t\t<label>{{ _(\"BMI\") }}</label>\n\t\t\t\t{{ doc.bmi }}</div>\n\t\t\t{% endif %}\n\t\t\t{% if doc.asthenia %}\n\t\t\t<div class=\"col-xs-4\">\n\t\t\t\t<label>{{ _(\"Asthenia\") }}</label>\n\t\t\t\t{{ doc.asthenia }}</div>\n\t\t\t{% endif %}\n\t\t\t{% if doc.high_blood_pressure_signs %}\n\t\t\t<div class=\"col-xs-4\">\n\t\t\t\t<label>{{ _(\"High Blood Pressure Signs\") }}</label>\n\t\t\t\t{{ doc.high_blood_pressure_signs }}</div>\n\t\t\t{% endif %}\n\t\t\t{% if doc.blood_pressure %}\n\t\t\t<div class=\"col-xs-4\">\n\t\t\t\t<label>{{ _(\"Blood Pressure\") }}</label>\n\t\t\t\t{{ doc.blood_pressure }}</div>\n\t\t\t{% endif %}\n\t\t</div>\n\t\t<br>\n\t\t{% endif %}\n\t</section>\n\t<section>\n\t\t{% if doc.resumption_of_menses or doc.breasts or doc.contraception or doc.vulva or doc.sexuality or doc.vaginal_exam\n\t\tor doc.cervical_smear %}\n\t\t<div>\n\t\t\t<h4>{{ _(\"Gynecological Exam\") }}</h4>\n\t\t</div>\n\t\t<div class=\"row data-field\">\n\t\t\t{% if doc.resumption_of_menses %}\n\t\t\t<div class=\"col-xs-4\">\n\t\t\t\t<label>{{ _(\"Resumption of Menses\") }}</label>\n\t\t\t\t{{ doc.resumption_of_menses }}</div>\n\t\t\t{% endif %}\n\t\t\t{% if doc.breasts %}\n\t\t\t<div class=\"col-xs-4\">\n\t\t\t\t<label>{{ _(\"Breasts\") }}</label>\n\t\t\t\t{{ doc.breasts }}</div>\n\t\t\t{% endif %}\n\t\t\t{% if doc.contraception %}\n\t\t\t<div class=\"col-xs-4\">\n\t\t\t\t<label>{{ _(\"Contraception\") }}</label>\n\t\t\t\t{{ doc.contraception }}</div>\n\t\t\t{% endif %}\n\t\t\t{% if doc.vulva %}\n\t\t\t<div class=\"col-xs-4\">\n\t\t\t\t<label>{{ _(\"Vulva\") }}</label>\n\t\t\t\t{{ doc.vulva }}</div>\n\t\t\t{% endif %}\n\t\t\t{% if doc.sexuality %}\n\t\t\t<div class=\"col-xs-4\">\n\t\t\t\t<label>{{ _(\"Sexuality\") }}</label>\n\t\t\t\t{{ doc.sexuality }}</div>\n\t\t\t{% endif %}\n\t\t\t{% if doc.vaginal_exam %}\n\t\t\t<div class=\"col-xs-4\">\n\t\t\t\t<label>{{ _(\"Vaginal Exam\") }}</label>\n\t\t\t\t{{ doc.vaginal_exam }}</div>\n\t\t\t{% endif %}\n\t\t\t{% if doc.cervical_smear %}\n\t\t\t<div class=\"col-xs-4\">\n\t\t\t\t<label>{{ _(\"Cervical Smear\") }}</label>\n\t\t\t\t{{ doc.cervical_smear }}</div>\n\t\t\t{% endif %}\n\t\t</div>\n\t\t<br>\n\t\t{% endif %}\n\t</section>\n\t<section>\n\t\t{% if doc.comments %}\n\t\t<div>\n\t\t\t<h4>{{ _(\"Comments\") }}</h4>\n\t\t</div>\n\t\t<div class=\"row data-field\">\n\t\t\t<div class=\"col-xs-12\">\n\t\t\t\t{{ doc.get_formatted(\"comments\") }}</div>\n\t\t</div>\n\t\t<br>\n\t\t{% endif %}\n\t</section>\n\n\t<div id=\"footer-html\" class=\"visible-pdf\">\n\t\t{% if not no_letterhead and footer %}\n\t\t<div class=\"letter-head-footer\">\n\t\t\t{{ footer }}\n\t\t</div>\n\t\t{% endif %}\n\t\t<p class=\"text-center small page-number visible-pdf\">\n\t\t\t{{ _(\"Page {0} of {1}\").format('<span class=\"page\"></span>', '<span class=\"topage\"></span>') }}\n\t\t</p>\n\t</div>\n</div>",
 "idx": 0,
 "line_breaks": 0,
 "modified": "2023-08-17 11:55:37.008887",
 "modified_by": "Administrator",
 "module": "Patients",
 "name": "Postnatal Consultation",
 "owner": "Administrator",
 "print_format_builder": 0,
 "print_format_type": "Jinja",
 "show_section_headings": 0,
 "standard": "Yes"
}
