{
 "actions": [],
 "autoname": "naming_series:",
 "creation": "2019-04-09 17:38:49.963538",
 "doctype": "DocType",
 "editable_grid": 1,
 "engine": "InnoDB",
 "field_order": [
  "naming_series",
  "title",
  "payment_date",
  "payment_type",
  "column_break_4",
  "practitioner",
  "payment_method",
  "section_break_7",
  "party_type",
  "column_break_9",
  "party",
  "section_break_11",
  "paid_amount",
  "previously_paid_amount",
  "payment_references",
  "pending_amount",
  "clearance_date",
  "section_break_16",
  "payment_reference",
  "note",
  "amended_from",
  "status"
 ],
 "fields": [
  {
   "default": "PAIEMENT-.YYYY.-",
   "fieldname": "naming_series",
   "fieldtype": "Select",
   "hidden": 1,
   "label": "Series",
   "options": "PAIEMENT-.YYYY.-",
   "reqd": 1
  },
  {
   "fieldname": "title",
   "fieldtype": "Data",
   "hidden": 1,
   "label": "Title"
  },
  {
   "default": "Today",
   "fieldname": "payment_date",
   "fieldtype": "Date",
   "in_list_view": 1,
   "label": "Payment Date",
   "reqd": 1
  },
  {
   "fieldname": "payment_type",
   "fieldtype": "Select",
   "in_filter": 1,
   "in_list_view": 1,
   "in_standard_filter": 1,
   "label": "Payment Type",
   "options": "Incoming payment\nOutgoing payment\nInternal transfer",
   "reqd": 1
  },
  {
   "fieldname": "column_break_4",
   "fieldtype": "Column Break"
  },
  {
   "fieldname": "practitioner",
   "fieldtype": "Link",
   "in_list_view": 1,
   "in_standard_filter": 1,
   "label": "Practitioner",
   "options": "Professional Information Card",
   "reqd": 1
  },
  {
   "fieldname": "payment_method",
   "fieldtype": "Link",
   "in_list_view": 1,
   "in_standard_filter": 1,
   "label": "Payment Method",
   "options": "Payment Method",
   "reqd": 1
  },
  {
   "depends_on": "eval:doc.payment_type !== \"Internal transfer\"",
   "fieldname": "section_break_7",
   "fieldtype": "Section Break"
  },
  {
   "fieldname": "party_type",
   "fieldtype": "Select",
   "label": "Party Type",
   "options": "Party\nPatient Record"
  },
  {
   "fieldname": "column_break_9",
   "fieldtype": "Column Break"
  },
  {
   "fieldname": "party",
   "fieldtype": "Dynamic Link",
   "label": "Party",
   "options": "party_type"
  },
  {
   "fieldname": "section_break_11",
   "fieldtype": "Section Break"
  },
  {
   "fieldname": "paid_amount",
   "fieldtype": "Currency",
   "in_list_view": 1,
   "label": "Paid Amount",
   "reqd": 1
  },
  {
   "depends_on": "eval:doc.payment_type !== \"Internal transfer\" && doc.paid_amount > 0",
   "fieldname": "payment_references",
   "fieldtype": "Table",
   "label": "Payment References",
   "options": "Payment References"
  },
  {
   "fieldname": "pending_amount",
   "fieldtype": "Currency",
   "label": "Pending amount for this patient",
   "read_only": 1
  },
  {
   "fieldname": "clearance_date",
   "fieldtype": "Date",
   "label": "Clearance Date"
  },
  {
   "fieldname": "section_break_16",
   "fieldtype": "Section Break"
  },
  {
   "fieldname": "payment_reference",
   "fieldtype": "Data",
   "label": "Payment Reference"
  },
  {
   "fieldname": "note",
   "fieldtype": "Small Text",
   "label": "Note"
  },
  {
   "fieldname": "amended_from",
   "fieldtype": "Link",
   "label": "Amended From",
   "no_copy": 1,
   "options": "Payment",
   "print_hide": 1,
   "read_only": 1
  },
  {
   "fieldname": "status",
   "fieldtype": "Select",
   "hidden": 1,
   "in_standard_filter": 1,
   "label": "Status",
   "options": "Draft\nUnreconciled\nReconciled\nCancelled"
  },
  {
   "depends_on": "eval:doc.previously_paid_amount > 0",
   "fieldname": "previously_paid_amount",
   "fieldtype": "Currency",
   "label": "Previously paid amount",
   "read_only": 1
  }
 ],
 "is_sealed": 1,
 "is_submittable": 1,
 "links": [],
 "modified": "2023-10-12 22:28:08.879161",
 "modified_by": "Administrator",
 "module": "Accounting",
 "name": "Payment",
 "name_after_submit": 1,
 "naming_rule": "By \"Naming Series\" field",
 "owner": "Administrator",
 "permissions": [
  {
   "amend": 1,
   "cancel": 1,
   "create": 1,
   "delete": 1,
   "email": 1,
   "export": 1,
   "print": 1,
   "read": 1,
   "report": 1,
   "role": "System Manager",
   "select": 1,
   "share": 1,
   "submit": 1,
   "write": 1
  },
  {
   "amend": 1,
   "cancel": 1,
   "create": 1,
   "delete": 1,
   "email": 1,
   "export": 1,
   "print": 1,
   "read": 1,
   "report": 1,
   "role": "Midwife",
   "select": 1,
   "share": 1,
   "submit": 1,
   "write": 1
  },
  {
   "amend": 1,
   "cancel": 1,
   "create": 1,
   "delete": 1,
   "email": 1,
   "export": 1,
   "print": 1,
   "read": 1,
   "report": 1,
   "role": "Midwife Substitute",
   "select": 1,
   "share": 1,
   "submit": 1,
   "write": 1
  },
  {
   "amend": 1,
   "cancel": 1,
   "create": 1,
   "delete": 1,
   "email": 1,
   "export": 1,
   "print": 1,
   "read": 1,
   "report": 1,
   "role": "Physician",
   "select": 1,
   "share": 1,
   "submit": 1,
   "write": 1
  }
 ],
 "search_fields": "payment_date",
 "sort_field": "modified",
 "sort_order": "DESC",
 "states": [],
 "title_field": "title",
 "track_changes": 1,
 "track_print": 1
}
