{
 "actions": [],
 "allow_import": 1,
 "autoname": "naming_series:",
 "creation": "2017-03-16 16:35:50.382352",
 "doctype": "DocType",
 "document_type": "Document",
 "editable_grid": 1,
 "engine": "InnoDB",
 "field_order": [
  "naming_series",
  "patient_name",
  "column_break_itrj",
  "amended_from",
  "accounting_disabled",
  "section_break_2",
  "patient_record",
  "pregnancy_folder",
  "column_break_2",
  "practitioner",
  "consultation_date",
  "day",
  "consultation_purpose_section",
  "consultation_type",
  "column_break_12",
  "consultation_purpose",
  "section_break_10",
  "mother",
  "mother_general_health",
  "mother_pain_rating",
  "section_break_12",
  "blood_pressure",
  "edema",
  "edema_details",
  "functional_signs_of_hypertension",
  "functional_signs_of_hypertension_details",
  "column_break_15",
  "pulsations",
  "urinary_functional_signs",
  "ufs_details",
  "column_break_18",
  "mother_temperature",
  "digestive_functional_signs",
  "dfs_details",
  "section_break_21",
  "breasts",
  "uterus",
  "column_break_24",
  "lochia",
  "suture_scar",
  "section_break_26",
  "psychological_state",
  "drugs",
  "education_advices",
  "prescription",
  "section_break_32",
  "newborn",
  "newborn_general_health",
  "newborn_temperature",
  "column_break_42",
  "newborn_fullname",
  "twins",
  "triplets",
  "cardio_pulmonary_exam",
  "cardiac_frequency",
  "normal_neurological_morphological_exam",
  "perceived_femoral_pulse",
  "column_break_39",
  "respiratory_rate",
  "abnormal_neurological_morphological_exam",
  "perceived_femoral_pulse_details",
  "feeding",
  "feeding_type",
  "effective_feeding_criterion",
  "column_break_48",
  "number_meals_per_day",
  "section_break_47",
  "stools_urine",
  "vomiting",
  "jaundice_risk",
  "pain_rating",
  "vitamin_supplement",
  "column_break_61",
  "stools_urine_details",
  "vomiting_details",
  "jaundice_risk_details",
  "pain_rating_details",
  "section_break_57",
  "weight_of_the_day",
  "column_break_59",
  "weight_gain",
  "section_break_31",
  "newborn_2",
  "newborn_general_health_2",
  "newborn_temperature_2",
  "column_break_43",
  "newborn_fullname_2",
  "cardio_pulmonary_exam_2",
  "cardiac_frequency_2",
  "normal_neurological_morphological_exam_2",
  "perceived_femoral_pulse_2",
  "column_break_44",
  "respiratory_rate_2",
  "abnormal_neurological_morphological_exam_2",
  "perceived_femoral_pulse_details_2",
  "feeding_2",
  "feeding_type_2",
  "effective_feeding_criterion_2",
  "column_break_45",
  "number_meals_per_day_2",
  "section_break_46",
  "stools_urine_2",
  "vomiting_2",
  "jaundice_risk_2",
  "pain_rating_2",
  "vitamin_supplement_2",
  "column_break_46",
  "stools_urine_details_2",
  "vomiting_details_2",
  "jaundice_risk_details_2",
  "pain_rating_details_2",
  "section_break_59",
  "weight_of_the_day_2",
  "column_break_62",
  "weight_gain_2",
  "section_break_9",
  "newborn_3",
  "newborn_general_health_3",
  "newborn_temperature_3",
  "column_break_47",
  "newborn_fullname_3",
  "cardio_pulmonary_exam_3",
  "cardiac_frequency_3",
  "normal_neurological_morphological_exam_3",
  "perceived_femoral_pulse_3",
  "column_break_40",
  "respiratory_rate_3",
  "abnormal_neurological_morphological_exam_3",
  "perceived_femoral_pulse_details_3",
  "feeding_3",
  "feeding_type_3",
  "effective_feeding_criterion_3",
  "column_break_49",
  "number_meals_per_day_3",
  "section_break_50",
  "stools_urine_3",
  "vomiting_3",
  "jaundice_risk_3",
  "pain_rating_3",
  "vitamin_supplement_3",
  "column_break_63",
  "stools_urine_details_3",
  "vomiting_details_3",
  "jaundice_risk_details_3",
  "pain_rating_details_3",
  "section_break_61",
  "weight_of_the_day_3",
  "column_break_57",
  "weight_gain_3",
  "section_break_143",
  "comments",
  "billing_tab",
  "billing_details_section",
  "third_party_payment",
  "social_security_price",
  "column_break_uayo",
  "hundred_percent_maternity",
  "malady",
  "column_break_qnpz",
  "normal_rate",
  "alsace_moselle_rate",
  "section_break_pkyb",
  "sundays_holidays_allowance",
  "night_work_allowance",
  "night_work_allowance_type",
  "codification",
  "codification_description",
  "column_break_hukt",
  "lump_sum_travel_allowance",
  "mileage_allowance",
  "mileage_allowance_type",
  "number_of_kilometers",
  "without_codification",
  "without_codification_description",
  "pricing_details_section",
  "consultation_items",
  "section_break_ggmi",
  "codification_value",
  "overpayment_value",
  "column_break_iycd",
  "without_codification_display",
  "total_allowances",
  "section_break_lhev",
  "cpam_share_display",
  "patient_price",
  "total_price",
  "column_break_cbei",
  "paid_immediately",
  "mode_of_payment",
  "reference",
  "print_settings_tab",
  "print_settings",
  "letter_head"
 ],
 "fields": [
  {
   "default": "CONS-PRADO-.YYYY.-",
   "fieldname": "naming_series",
   "fieldtype": "Select",
   "hidden": 1,
   "label": "Series",
   "options": "CONS-PRADO-.YYYY.-",
   "reqd": 1
  },
  {
   "fetch_from": "patient_record.patient_name",
   "fieldname": "patient_name",
   "fieldtype": "Data",
   "in_list_view": 1,
   "label": "Patient Name",
   "read_only": 1
  },
  {
   "fieldname": "section_break_2",
   "fieldtype": "Section Break"
  },
  {
   "fieldname": "patient_record",
   "fieldtype": "Link",
   "in_list_view": 1,
   "in_standard_filter": 1,
   "label": "Patient Record",
   "options": "Patient Record",
   "reqd": 1,
   "set_only_once": 1
  },
  {
   "fieldname": "pregnancy_folder",
   "fieldtype": "Link",
   "in_list_view": 1,
   "label": "Pregnancy Folder",
   "options": "Pregnancy",
   "reqd": 1,
   "set_only_once": 1
  },
  {
   "fieldname": "column_break_2",
   "fieldtype": "Column Break"
  },
  {
   "fieldname": "practitioner",
   "fieldtype": "Link",
   "in_filter": 1,
   "in_standard_filter": 1,
   "label": "Practitioner",
   "options": "Professional Information Card",
   "print_hide": 1,
   "remember_last_selected_value": 1,
   "reqd": 1,
   "search_index": 1
  },
  {
   "default": "Today",
   "fieldname": "consultation_date",
   "fieldtype": "Date",
   "label": "Consultation Date",
   "reqd": 1
  },
  {
   "fieldname": "day",
   "fieldtype": "Read Only",
   "label": "Day"
  },
  {
   "depends_on": "eval:doc.consultation_type==\"Early Postnatal\"",
   "fieldname": "section_break_10",
   "fieldtype": "Section Break"
  },
  {
   "fieldname": "mother",
   "fieldtype": "Heading",
   "label": "Mother"
  },
  {
   "fieldname": "mother_general_health",
   "fieldtype": "Data",
   "label": "General Health"
  },
  {
   "fieldname": "mother_pain_rating",
   "fieldtype": "Data",
   "label": "Mother Pain Rating"
  },
  {
   "depends_on": "eval:doc.consultation_type==\"Early Postnatal\"",
   "fieldname": "section_break_12",
   "fieldtype": "Section Break"
  },
  {
   "fieldname": "blood_pressure",
   "fieldtype": "Data",
   "label": "Blood Pressure"
  },
  {
   "default": "0",
   "fieldname": "edema",
   "fieldtype": "Check",
   "label": "Edema"
  },
  {
   "depends_on": "eval:(doc.edema==1)",
   "fieldname": "edema_details",
   "fieldtype": "Data",
   "label": "Details"
  },
  {
   "default": "0",
   "fieldname": "functional_signs_of_hypertension",
   "fieldtype": "Check",
   "label": "Functional Signs of Hypertension"
  },
  {
   "depends_on": "eval:(doc.functional_signs_of_hypertension==1)",
   "fieldname": "functional_signs_of_hypertension_details",
   "fieldtype": "Data",
   "label": "Details"
  },
  {
   "fieldname": "column_break_15",
   "fieldtype": "Column Break"
  },
  {
   "fieldname": "pulsations",
   "fieldtype": "Data",
   "label": "Pulsations"
  },
  {
   "default": "0",
   "fieldname": "urinary_functional_signs",
   "fieldtype": "Check",
   "label": "Urinary Functional Signs"
  },
  {
   "depends_on": "eval:(doc.urinary_functional_signs==1)",
   "fieldname": "ufs_details",
   "fieldtype": "Data",
   "label": "Details"
  },
  {
   "fieldname": "column_break_18",
   "fieldtype": "Column Break"
  },
  {
   "fieldname": "mother_temperature",
   "fieldtype": "Data",
   "label": "Temperature"
  },
  {
   "default": "0",
   "fieldname": "digestive_functional_signs",
   "fieldtype": "Check",
   "label": "Digestive Functional Signs"
  },
  {
   "depends_on": "eval:(doc.digestive_functional_signs==1)",
   "fieldname": "dfs_details",
   "fieldtype": "Data",
   "label": "Details"
  },
  {
   "depends_on": "eval:doc.consultation_type==\"Early Postnatal\"",
   "fieldname": "section_break_21",
   "fieldtype": "Section Break"
  },
  {
   "fieldname": "breasts",
   "fieldtype": "Data",
   "label": "Breasts"
  },
  {
   "fieldname": "uterus",
   "fieldtype": "Data",
   "label": "Uterus"
  },
  {
   "fieldname": "column_break_24",
   "fieldtype": "Column Break"
  },
  {
   "fieldname": "lochia",
   "fieldtype": "Data",
   "label": "Lochia"
  },
  {
   "fieldname": "suture_scar",
   "fieldtype": "Data",
   "label": "Suture/C-Section Scar"
  },
  {
   "depends_on": "eval:doc.consultation_type==\"Early Postnatal\"",
   "fieldname": "section_break_26",
   "fieldtype": "Section Break"
  },
  {
   "fieldname": "psychological_state",
   "fieldtype": "Small Text",
   "label": "Psychological State/Mother-Child Bond"
  },
  {
   "fieldname": "drugs",
   "fieldtype": "Table",
   "label": "Current Medication",
   "options": "Drugs"
  },
  {
   "fieldname": "education_advices",
   "fieldtype": "Small Text",
   "label": "Education/Advices"
  },
  {
   "fieldname": "prescription",
   "fieldtype": "Small Text",
   "label": "Prescription Written"
  },
  {
   "fieldname": "section_break_32",
   "fieldtype": "Section Break"
  },
  {
   "fieldname": "newborn",
   "fieldtype": "Heading",
   "label": "Newborn"
  },
  {
   "fieldname": "newborn_general_health",
   "fieldtype": "Data",
   "label": "General Health"
  },
  {
   "depends_on": "eval:doc.consultation_type != \"Breastfeeding\"",
   "fieldname": "newborn_temperature",
   "fieldtype": "Data",
   "label": "Temperature"
  },
  {
   "fieldname": "column_break_42",
   "fieldtype": "Column Break"
  },
  {
   "fieldname": "newborn_fullname",
   "fieldtype": "Data",
   "label": "Full Name",
   "read_only": 1
  },
  {
   "default": "0",
   "fieldname": "twins",
   "fieldtype": "Check",
   "hidden": 1,
   "label": "Twins",
   "read_only": 1
  },
  {
   "default": "0",
   "fieldname": "triplets",
   "fieldtype": "Check",
   "hidden": 1,
   "label": "Triplets",
   "read_only": 1
  },
  {
   "depends_on": "eval:[\"Baby\", \"Early Postnatal\"].includes(doc.consultation_type)",
   "fieldname": "cardio_pulmonary_exam",
   "fieldtype": "Section Break",
   "label": "Newborn Exam"
  },
  {
   "fieldname": "cardiac_frequency",
   "fieldtype": "Data",
   "label": "Cardiac Frequency"
  },
  {
   "default": "0",
   "fieldname": "normal_neurological_morphological_exam",
   "fieldtype": "Check",
   "label": "Normal Neurological and Morphological Exam"
  },
  {
   "default": "0",
   "fieldname": "perceived_femoral_pulse",
   "fieldtype": "Check",
   "label": "Femoral Pulse Perceived on Both Sides"
  },
  {
   "fieldname": "column_break_39",
   "fieldtype": "Column Break"
  },
  {
   "fieldname": "respiratory_rate",
   "fieldtype": "Data",
   "label": "Respiratory Rate"
  },
  {
   "depends_on": "eval:!doc.normal_neurological_morphological_exam",
   "fieldname": "abnormal_neurological_morphological_exam",
   "fieldtype": "Data",
   "label": "Abnormal Neurological and Morphological Exam"
  },
  {
   "depends_on": "eval:!doc.perceived_femoral_pulse",
   "fieldname": "perceived_femoral_pulse_details",
   "fieldtype": "Data",
   "label": "If Femoral Pulse Not Perceived:"
  },
  {
   "fieldname": "feeding",
   "fieldtype": "Section Break",
   "label": "Feeding"
  },
  {
   "fieldname": "feeding_type",
   "fieldtype": "Select",
   "label": "Feeding Type",
   "options": "\nBottle Feeding\nBreastfeeding\nBoth"
  },
  {
   "fieldname": "effective_feeding_criterion",
   "fieldtype": "Small Text",
   "label": "Effective Feeding Criterion"
  },
  {
   "fieldname": "column_break_48",
   "fieldtype": "Column Break"
  },
  {
   "fieldname": "number_meals_per_day",
   "fieldtype": "Select",
   "label": "Number of Meals per Day",
   "options": "0\n1\n2\n3\n4\n5\n6\n7\n8\n9\n10\n11\n12\n13\n14\n15\n16\n17\n18\n19\n20\n21\n22\n23\n24"
  },
  {
   "depends_on": "eval:[\"Baby\", \"Early Postnatal\"].includes(doc.consultation_type)",
   "fieldname": "section_break_47",
   "fieldtype": "Section Break"
  },
  {
   "default": "0",
   "fieldname": "stools_urine",
   "fieldtype": "Check",
   "label": "Stools/Urine"
  },
  {
   "default": "0",
   "fieldname": "vomiting",
   "fieldtype": "Check",
   "label": "Vomiting"
  },
  {
   "default": "0",
   "fieldname": "jaundice_risk",
   "fieldtype": "Check",
   "label": "Jaundice Risk"
  },
  {
   "default": "0",
   "fieldname": "pain_rating",
   "fieldtype": "Check",
   "label": "Pain Rating"
  },
  {
   "default": "0",
   "fieldname": "vitamin_supplement",
   "fieldtype": "Check",
   "label": "Vitamin D/K Supplement"
  },
  {
   "fieldname": "column_break_61",
   "fieldtype": "Column Break"
  },
  {
   "depends_on": "eval:!doc.stools_urine",
   "fieldname": "stools_urine_details",
   "fieldtype": "Data",
   "label": "Stools/Urine Issue:"
  },
  {
   "depends_on": "eval:(doc.vomiting==1)",
   "fieldname": "vomiting_details",
   "fieldtype": "Data",
   "label": "Vomiting Details:"
  },
  {
   "depends_on": "eval:(doc.jaundice_risk==1)",
   "fieldname": "jaundice_risk_details",
   "fieldtype": "Data",
   "label": "Jaundice Details:"
  },
  {
   "depends_on": "eval:(doc.pain_rating==1)",
   "fieldname": "pain_rating_details",
   "fieldtype": "Data",
   "label": "Pain Rating Details"
  },
  {
   "fieldname": "section_break_57",
   "fieldtype": "Section Break"
  },
  {
   "fieldname": "weight_of_the_day",
   "fieldtype": "Int",
   "label": "Weight of the Day"
  },
  {
   "fieldname": "column_break_59",
   "fieldtype": "Column Break"
  },
  {
   "fieldname": "weight_gain",
   "fieldtype": "Data",
   "label": "Weight Gain (g)"
  },
  {
   "depends_on": "eval:(doc.twins||doc.triplets) && doc.consultation!=\"Baby\"",
   "fieldname": "section_break_31",
   "fieldtype": "Section Break"
  },
  {
   "fieldname": "newborn_2",
   "fieldtype": "Heading",
   "label": "Newborn 2"
  },
  {
   "fieldname": "newborn_general_health_2",
   "fieldtype": "Data",
   "label": "General Health"
  },
  {
   "depends_on": "eval:doc.consultation_type != \"Breastfeeding\"",
   "fieldname": "newborn_temperature_2",
   "fieldtype": "Data",
   "label": "Temperature"
  },
  {
   "fieldname": "column_break_43",
   "fieldtype": "Column Break"
  },
  {
   "fieldname": "newborn_fullname_2",
   "fieldtype": "Data",
   "label": "Full Name",
   "read_only": 1
  },
  {
   "depends_on": "eval:(doc.twins||doc.triplets) && ![\"Breastfeeding\", \"Baby\"].includes(doc.consultation_type)",
   "fieldname": "cardio_pulmonary_exam_2",
   "fieldtype": "Section Break",
   "label": "Newborn Exam"
  },
  {
   "fieldname": "cardiac_frequency_2",
   "fieldtype": "Data",
   "label": "Cardiac Frequency"
  },
  {
   "default": "0",
   "fieldname": "normal_neurological_morphological_exam_2",
   "fieldtype": "Check",
   "label": "Normal Neurological and Morphological Exam"
  },
  {
   "default": "0",
   "fieldname": "perceived_femoral_pulse_2",
   "fieldtype": "Check",
   "label": "Femoral Pulse Perceived on Both Sides"
  },
  {
   "fieldname": "column_break_44",
   "fieldtype": "Column Break"
  },
  {
   "fieldname": "respiratory_rate_2",
   "fieldtype": "Data",
   "label": "Respiratory Rate"
  },
  {
   "depends_on": "eval:!doc.normal_neurological_morphological_exam_2",
   "fieldname": "abnormal_neurological_morphological_exam_2",
   "fieldtype": "Data",
   "label": "Abnormal Neurological and Morphological Exam"
  },
  {
   "depends_on": "eval:!doc.perceived_femoral_pulse_2",
   "fieldname": "perceived_femoral_pulse_details_2",
   "fieldtype": "Data",
   "label": "If Femoral Pulse Not Perceived:"
  },
  {
   "depends_on": "eval:(doc.twins||doc.triplets) && doc.consultation_type != \"Baby\"",
   "fieldname": "feeding_2",
   "fieldtype": "Section Break",
   "label": "Feeding"
  },
  {
   "fieldname": "feeding_type_2",
   "fieldtype": "Select",
   "label": "Feeding Type",
   "options": "\nBottle Feeding\nBreastfeeding\nBoth"
  },
  {
   "fieldname": "effective_feeding_criterion_2",
   "fieldtype": "Small Text",
   "label": "Effective Feeding Criterion"
  },
  {
   "fieldname": "column_break_45",
   "fieldtype": "Column Break"
  },
  {
   "fieldname": "number_meals_per_day_2",
   "fieldtype": "Select",
   "label": "Number of Meals per Day",
   "options": "0\n1\n2\n3\n4\n5\n6\n7\n8\n9\n10\n11\n12\n13\n14\n15\n16\n17\n18\n19\n20\n21\n22\n23\n24"
  },
  {
   "depends_on": "eval:(doc.twins||doc.triplets) && ![\"Breastfeeding\", \"Baby\"].includes(doc.consultation_type)",
   "fieldname": "section_break_46",
   "fieldtype": "Section Break"
  },
  {
   "default": "0",
   "fieldname": "stools_urine_2",
   "fieldtype": "Check",
   "label": "Stools/Urine"
  },
  {
   "default": "0",
   "fieldname": "vomiting_2",
   "fieldtype": "Check",
   "label": "Vomiting"
  },
  {
   "default": "0",
   "fieldname": "jaundice_risk_2",
   "fieldtype": "Check",
   "label": "Jaundice Risk"
  },
  {
   "default": "0",
   "fieldname": "pain_rating_2",
   "fieldtype": "Check",
   "label": "Pain Rating"
  },
  {
   "default": "0",
   "fieldname": "vitamin_supplement_2",
   "fieldtype": "Check",
   "label": "Vitamin D/K Supplement"
  },
  {
   "fieldname": "column_break_46",
   "fieldtype": "Column Break"
  },
  {
   "depends_on": "eval:!doc.stools_urine_2",
   "fieldname": "stools_urine_details_2",
   "fieldtype": "Data",
   "label": "Stools/Urine Issue:"
  },
  {
   "depends_on": "eval:(doc.vomiting_2==1)",
   "fieldname": "vomiting_details_2",
   "fieldtype": "Data",
   "label": "Vomiting Details:"
  },
  {
   "depends_on": "eval:(doc.jaundice_risk_2==1)",
   "fieldname": "jaundice_risk_details_2",
   "fieldtype": "Data",
   "label": "Jaundice Details:"
  },
  {
   "depends_on": "eval:(doc.pain_rating_2==1)",
   "fieldname": "pain_rating_details_2",
   "fieldtype": "Data",
   "label": "Pain Rating Details"
  },
  {
   "depends_on": "eval:(doc.twins||doc.triplets) && doc.consultation_type != \"Baby\"",
   "fieldname": "section_break_59",
   "fieldtype": "Section Break"
  },
  {
   "fieldname": "weight_of_the_day_2",
   "fieldtype": "Int",
   "label": "Weight of the Day"
  },
  {
   "fieldname": "column_break_62",
   "fieldtype": "Column Break"
  },
  {
   "fieldname": "weight_gain_2",
   "fieldtype": "Data",
   "label": "Weight Gain (g)"
  },
  {
   "depends_on": "eval:(doc.triplets) && doc.consultation_type != \"Baby\"",
   "fieldname": "section_break_9",
   "fieldtype": "Section Break"
  },
  {
   "fieldname": "newborn_3",
   "fieldtype": "Heading",
   "label": "Newborn 3"
  },
  {
   "fieldname": "newborn_general_health_3",
   "fieldtype": "Data",
   "label": "General Health"
  },
  {
   "depends_on": "eval:doc.consultation_type != \"Breastfeeding\"",
   "fieldname": "newborn_temperature_3",
   "fieldtype": "Data",
   "label": "Temperature"
  },
  {
   "fieldname": "column_break_47",
   "fieldtype": "Column Break"
  },
  {
   "fieldname": "newborn_fullname_3",
   "fieldtype": "Data",
   "label": "Full Name",
   "read_only": 1
  },
  {
   "depends_on": "eval:(doc.triplets) && ![\"Breastfeeding\", \"Baby\"].includes(doc.consultation_type)",
   "fieldname": "cardio_pulmonary_exam_3",
   "fieldtype": "Section Break",
   "label": "Newborn Exam"
  },
  {
   "fieldname": "cardiac_frequency_3",
   "fieldtype": "Data",
   "label": "Cardiac Frequency"
  },
  {
   "default": "0",
   "fieldname": "normal_neurological_morphological_exam_3",
   "fieldtype": "Check",
   "label": "Normal Neurological and Morphological Exam"
  },
  {
   "default": "0",
   "fieldname": "perceived_femoral_pulse_3",
   "fieldtype": "Check",
   "label": "Femoral Pulse Perceived on Both Sides"
  },
  {
   "fieldname": "column_break_40",
   "fieldtype": "Column Break"
  },
  {
   "fieldname": "respiratory_rate_3",
   "fieldtype": "Data",
   "label": "Respiratory Rate"
  },
  {
   "depends_on": "eval:!doc.normal_neurological_morphological_exam_3",
   "fieldname": "abnormal_neurological_morphological_exam_3",
   "fieldtype": "Data",
   "label": "Abnormal Neurological and Morphological Exam"
  },
  {
   "depends_on": "eval:!doc.perceived_femoral_pulse_3",
   "fieldname": "perceived_femoral_pulse_details_3",
   "fieldtype": "Data",
   "label": "If Femoral Pulse Not Perceived:"
  },
  {
   "depends_on": "eval:(doc.triplets) && doc.consultation_type!=\"Baby\"",
   "fieldname": "feeding_3",
   "fieldtype": "Section Break",
   "label": "Feeding"
  },
  {
   "fieldname": "feeding_type_3",
   "fieldtype": "Select",
   "label": "Feeding Type",
   "options": "\nBottle Feeding\nBreastfeeding\nBoth"
  },
  {
   "fieldname": "effective_feeding_criterion_3",
   "fieldtype": "Small Text",
   "label": "Effective Feeding Criterion"
  },
  {
   "fieldname": "column_break_49",
   "fieldtype": "Column Break"
  },
  {
   "fieldname": "number_meals_per_day_3",
   "fieldtype": "Select",
   "label": "Number of Meals per Day",
   "options": "0\n1\n2\n3\n4\n5\n6\n7\n8\n9\n10\n11\n12\n13\n14\n15\n16\n17\n18\n19\n20\n21\n22\n23\n24"
  },
  {
   "depends_on": "eval:(doc.triplets) && ![\"Breastfeeding\", \"Baby\"].includes(doc.consultation_type)",
   "fieldname": "section_break_50",
   "fieldtype": "Section Break"
  },
  {
   "default": "0",
   "fieldname": "stools_urine_3",
   "fieldtype": "Check",
   "label": "Stools/Urine"
  },
  {
   "default": "0",
   "fieldname": "vomiting_3",
   "fieldtype": "Check",
   "label": "Vomiting"
  },
  {
   "default": "0",
   "fieldname": "jaundice_risk_3",
   "fieldtype": "Check",
   "label": "Jaundice Risk"
  },
  {
   "default": "0",
   "fieldname": "pain_rating_3",
   "fieldtype": "Check",
   "label": "Pain Rating"
  },
  {
   "default": "0",
   "fieldname": "vitamin_supplement_3",
   "fieldtype": "Check",
   "label": "Vitamin D/K Supplement"
  },
  {
   "fieldname": "column_break_63",
   "fieldtype": "Column Break"
  },
  {
   "depends_on": "eval:!doc.stools_urine_3",
   "fieldname": "stools_urine_details_3",
   "fieldtype": "Data",
   "label": "Stools/Urine Issue:"
  },
  {
   "depends_on": "eval:(doc.vomiting_3==1)",
   "fieldname": "vomiting_details_3",
   "fieldtype": "Data",
   "label": "Vomiting Details:"
  },
  {
   "depends_on": "eval:(doc.jaundice_risk_3==1)",
   "fieldname": "jaundice_risk_details_3",
   "fieldtype": "Data",
   "label": "Jaundice Details:"
  },
  {
   "depends_on": "eval:(doc.pain_rating_3==1)",
   "fieldname": "pain_rating_details_3",
   "fieldtype": "Data",
   "label": "Pain Rating Details"
  },
  {
   "depends_on": "eval:(doc.triplets) && doc.consultation_type != \"Baby\"",
   "fieldname": "section_break_61",
   "fieldtype": "Section Break"
  },
  {
   "fieldname": "weight_of_the_day_3",
   "fieldtype": "Int",
   "label": "Weight of the Day"
  },
  {
   "fieldname": "column_break_57",
   "fieldtype": "Column Break"
  },
  {
   "fieldname": "weight_gain_3",
   "fieldtype": "Data",
   "label": "Weight Gain (g)"
  },
  {
   "fieldname": "section_break_143",
   "fieldtype": "Section Break"
  },
  {
   "fieldname": "comments",
   "fieldtype": "Small Text",
   "label": "Comments"
  },
  {
   "fieldname": "amended_from",
   "fieldtype": "Link",
   "label": "Amended From",
   "no_copy": 1,
   "options": "Early Postnatal Consultation",
   "print_hide": 1,
   "read_only": 1
  },
  {
   "collapsible": 1,
   "fieldname": "print_settings",
   "fieldtype": "Section Break",
   "label": "Print Settings"
  },
  {
   "allow_on_submit": 1,
   "fieldname": "letter_head",
   "fieldtype": "Link",
   "label": "Letter Head",
   "options": "Letter Head"
  },
  {
   "fieldname": "consultation_purpose_section",
   "fieldtype": "Section Break"
  },
  {
   "fieldname": "consultation_type",
   "fieldtype": "Select",
   "label": "Consultation Type",
   "options": "Early Postnatal\nBreastfeeding\nBaby"
  },
  {
   "depends_on": "eval:[\"Breastfeeding\", \"Baby\"].includes(doc.consultation_type)",
   "fieldname": "consultation_purpose",
   "fieldtype": "Data",
   "label": "Consultation Purpose"
  },
  {
   "fieldname": "column_break_12",
   "fieldtype": "Column Break"
  },
  {
   "fieldname": "billing_details_section",
   "fieldtype": "Section Break",
   "label": "Billing Details"
  },
  {
   "default": "0",
   "fieldname": "third_party_payment",
   "fieldtype": "Check",
   "label": "Third-Party Payment"
  },
  {
   "default": "0",
   "fieldname": "social_security_price",
   "fieldtype": "Check",
   "label": "Apply social security price"
  },
  {
   "fieldname": "column_break_uayo",
   "fieldtype": "Column Break"
  },
  {
   "default": "0",
   "fieldname": "hundred_percent_maternity",
   "fieldtype": "Check",
   "label": "100% Maternity"
  },
  {
   "default": "0",
   "depends_on": "eval:doc.third_party_payment",
   "fieldname": "malady",
   "fieldtype": "Check",
   "label": "Malady"
  },
  {
   "fieldname": "column_break_qnpz",
   "fieldtype": "Column Break"
  },
  {
   "default": "0",
   "depends_on": "eval:doc.third_party_payment&&doc.malady",
   "fieldname": "normal_rate",
   "fieldtype": "Check",
   "label": "Normal Rate (70%)"
  },
  {
   "default": "0",
   "depends_on": "eval:doc.third_party_payment&&doc.malady",
   "fieldname": "alsace_moselle_rate",
   "fieldtype": "Check",
   "label": "R\u00e9gime d'Alsace-Moselle (90%)"
  },
  {
   "fieldname": "section_break_pkyb",
   "fieldtype": "Section Break"
  },
  {
   "default": "0",
   "fieldname": "sundays_holidays_allowance",
   "fieldtype": "Check",
   "label": "Sundays/Holidays Allowance"
  },
  {
   "default": "0",
   "fieldname": "night_work_allowance",
   "fieldtype": "Check",
   "label": "Night Work Allowance"
  },
  {
   "default": "20h-0h | 6h-8h",
   "depends_on": "eval:(doc.night_work_allowance==1)",
   "fieldname": "night_work_allowance_type",
   "fieldtype": "Select",
   "label": "Night Work Allowance Type",
   "options": "20h-0h | 6h-8h\n0h-6h"
  },
  {
   "fieldname": "codification",
   "fieldtype": "Table MultiSelect",
   "label": "Codification",
   "options": "Selected Codification"
  },
  {
   "fieldname": "codification_description",
   "fieldtype": "Small Text",
   "label": "Description",
   "read_only": 1
  },
  {
   "fieldname": "column_break_hukt",
   "fieldtype": "Column Break"
  },
  {
   "default": "0",
   "fieldname": "lump_sum_travel_allowance",
   "fieldtype": "Check",
   "label": "Lump Sum Travel Allowance"
  },
  {
   "default": "0",
   "fieldname": "mileage_allowance",
   "fieldtype": "Check",
   "label": "Mileage Allowance"
  },
  {
   "default": "Lowland",
   "depends_on": "eval:(doc.mileage_allowance==1)",
   "fieldname": "mileage_allowance_type",
   "fieldtype": "Select",
   "label": "Mileage Allowance Type",
   "options": "Lowland\nMountain\nWalking/Skiing"
  },
  {
   "depends_on": "eval:(doc.mileage_allowance==1)",
   "fieldname": "number_of_kilometers",
   "fieldtype": "Int",
   "label": "Number of Kilometers"
  },
  {
   "fieldname": "without_codification",
   "fieldtype": "Currency",
   "label": "Without Codification (\u20ac)"
  },
  {
   "depends_on": "eval:(doc.without_codification)",
   "fieldname": "without_codification_description",
   "fieldtype": "Data",
   "label": "Description"
  },
  {
   "fieldname": "pricing_details_section",
   "fieldtype": "Section Break",
   "label": "Pricing Details"
  },
  {
   "fieldname": "consultation_items",
   "fieldtype": "Table",
   "label": "Details",
   "options": "Consultation Items",
   "read_only": 1
  },
  {
   "fieldname": "section_break_ggmi",
   "fieldtype": "Section Break"
  },
  {
   "fieldname": "codification_value",
   "fieldtype": "Currency",
   "label": "Codification Total Value",
   "read_only": 1
  },
  {
   "fieldname": "overpayment_value",
   "fieldtype": "Currency",
   "label": "Overpayment",
   "read_only": 1
  },
  {
   "fieldname": "column_break_iycd",
   "fieldtype": "Column Break",
   "read_only": 1
  },
  {
   "depends_on": "eval:(doc.without_codification!=0)&&(doc.without_codification!=null)",
   "fieldname": "without_codification_display",
   "fieldtype": "Currency",
   "label": "Without Codification",
   "read_only": 1
  },
  {
   "fieldname": "total_allowances",
   "fieldtype": "Currency",
   "label": "Total Allowances",
   "read_only": 1
  },
  {
   "fieldname": "section_break_lhev",
   "fieldtype": "Section Break"
  },
  {
   "fieldname": "cpam_share_display",
   "fieldtype": "Currency",
   "label": "CPAM Share",
   "read_only": 1
  },
  {
   "fieldname": "patient_price",
   "fieldtype": "Currency",
   "label": "Patient Price",
   "read_only": 1
  },
  {
   "fieldname": "total_price",
   "fieldtype": "Currency",
   "label": "Total Price",
   "read_only": 1
  },
  {
   "fieldname": "column_break_cbei",
   "fieldtype": "Column Break",
   "read_only": 1
  },
  {
   "default": "0",
   "depends_on": "eval:(doc.patient_price)",
   "fieldname": "paid_immediately",
   "fieldtype": "Check",
   "label": "Paid Immediately"
  },
  {
   "depends_on": "eval:(doc.paid_immediately==1&&doc.patient_price)",
   "fieldname": "mode_of_payment",
   "fieldtype": "Link",
   "label": "Mode of Payment",
   "options": "Payment Method"
  },
  {
   "depends_on": "eval:(doc.paid_immediately==1&&doc.patient_price)",
   "fieldname": "reference",
   "fieldtype": "Data",
   "label": "Reference"
  },
  {
   "fieldname": "column_break_itrj",
   "fieldtype": "Column Break"
  },
  {
   "depends_on": "eval:!doc.accounting_disabled",
   "fieldname": "billing_tab",
   "fieldtype": "Tab Break",
   "label": "Billing"
  },
  {
   "fieldname": "print_settings_tab",
   "fieldtype": "Tab Break",
   "label": "Print Settings"
  },
  {
   "default": "0",
   "fieldname": "accounting_disabled",
   "fieldtype": "Check",
   "hidden": 1,
   "label": "Accounting Disabled"
  }
 ],
 "icon": "ante-natal-care-visit",
 "is_submittable": 1,
 "links": [
  {
   "group": "Prescriptions",
   "link_doctype": "Prescription",
   "link_fieldname": "reference_name"
  }
 ],
 "modified": "2023-09-26 22:46:13.117804",
 "modified_by": "Administrator",
 "module": "Patients",
 "name": "Early Postnatal Consultation",
 "naming_rule": "By \"Naming Series\" field",
 "owner": "Administrator",
 "permissions": [
  {
   "amend": 1,
   "cancel": 1,
   "create": 1,
   "delete": 1,
   "email": 1,
   "export": 1,
   "print": 1,
   "read": 1,
   "report": 1,
   "role": "System Manager",
   "share": 1,
   "submit": 1,
   "write": 1
  },
  {
   "amend": 1,
   "cancel": 1,
   "create": 1,
   "delete": 1,
   "email": 1,
   "export": 1,
   "import": 1,
   "print": 1,
   "read": 1,
   "report": 1,
   "role": "Midwife",
   "share": 1,
   "submit": 1,
   "write": 1
  },
  {
   "amend": 1,
   "cancel": 1,
   "create": 1,
   "delete": 1,
   "email": 1,
   "export": 1,
   "print": 1,
   "read": 1,
   "report": 1,
   "role": "Midwife Substitute",
   "share": 1,
   "submit": 1,
   "write": 1
  }
 ],
 "show_name_in_global_search": 1,
 "sort_field": "modified",
 "sort_order": "DESC",
 "states": [],
 "timeline_field": "patient_record",
 "title_field": "patient_name",
 "track_changes": 1
}